G04 #@! TF.FileFunction,Copper,L1,Top,Signal*
%FSLAX46Y46*%
G04 Gerber Fmt 4.6, Leading zero omitted, Abs format (unit mm)*
G04 Created by KiCad (PCBNEW 4.0.7) date 04/27/18 03:08:31*
%MOMM*%
%LPD*%
G01*
G04 APERTURE LIST*
%ADD10C,0.050000*%
%ADD11R,1.000000X1.250000*%
%ADD12C,1.700000*%
%ADD13R,1.800000X1.800000*%
%ADD14O,1.700000X1.700000*%
%ADD15R,1.700000X1.700000*%
%ADD16R,3.150000X1.000000*%
%ADD17R,1.300000X0.700000*%
%ADD18R,1.100000X0.400000*%
%ADD19R,2.500000X5.000000*%
%ADD20R,1.400000X0.300000*%
%ADD21R,2.000000X2.000000*%
%ADD22R,0.700000X1.300000*%
%ADD23R,1.200000X1.200000*%
%ADD24C,0.250000*%
%ADD25C,0.400000*%
%ADD26C,0.200000*%
%ADD27C,0.800000*%
%ADD28C,0.300000*%
G04 APERTURE END LIST*
D10*
D11*
X131556000Y-125222000D03*
X129556000Y-125222000D03*
X131556000Y-132588000D03*
X129556000Y-132588000D03*
X131556000Y-141986000D03*
X129556000Y-141986000D03*
X130540000Y-111506000D03*
X128540000Y-111506000D03*
X119650000Y-114300000D03*
X121650000Y-114300000D03*
X121650000Y-118364000D03*
X119650000Y-118364000D03*
X121650000Y-120396000D03*
X119650000Y-120396000D03*
X121650000Y-116332000D03*
X119650000Y-116332000D03*
X133842000Y-108712000D03*
X131842000Y-108712000D03*
D12*
X109220000Y-104140000D03*
D13*
X111760000Y-104140000D03*
X109220000Y-106680000D03*
X111760000Y-106680000D03*
X109220000Y-109220000D03*
D12*
X111760000Y-109220000D03*
D14*
X109220000Y-111760000D03*
X111760000Y-111760000D03*
X109220000Y-114300000D03*
X111760000Y-114300000D03*
D13*
X109220000Y-116840000D03*
X111760000Y-116840000D03*
D14*
X109220000Y-119380000D03*
D15*
X111760000Y-119380000D03*
D14*
X109220000Y-121920000D03*
X111760000Y-121920000D03*
X109220000Y-124460000D03*
X111760000Y-124460000D03*
X109220000Y-127000000D03*
D15*
X111760000Y-127000000D03*
D14*
X109220000Y-129540000D03*
X111760000Y-129540000D03*
X109220000Y-132080000D03*
X111760000Y-132080000D03*
X109220000Y-134620000D03*
X111760000Y-134620000D03*
X109220000Y-137160000D03*
X111760000Y-137160000D03*
X109220000Y-139700000D03*
D15*
X111760000Y-139700000D03*
D13*
X109220000Y-142240000D03*
D14*
X111760000Y-142240000D03*
D13*
X109220000Y-144780000D03*
D15*
X111760000Y-144780000D03*
D14*
X109220000Y-147320000D03*
X111760000Y-147320000D03*
X109220000Y-149860000D03*
X111760000Y-149860000D03*
D15*
X109220000Y-152400000D03*
D13*
X111760000Y-152400000D03*
D16*
X147970000Y-104775000D03*
X153020000Y-104775000D03*
X147970000Y-107315000D03*
X153020000Y-107315000D03*
X147970000Y-109855000D03*
X153020000Y-109855000D03*
X147970000Y-112395000D03*
X153020000Y-112395000D03*
X147970000Y-114935000D03*
X153020000Y-114935000D03*
X147970000Y-117475000D03*
X153020000Y-117475000D03*
X147970000Y-120015000D03*
X153020000Y-120015000D03*
X147970000Y-122555000D03*
X153020000Y-122555000D03*
X147970000Y-125095000D03*
X153020000Y-125095000D03*
X147970000Y-127635000D03*
X153020000Y-127635000D03*
X147970000Y-130175000D03*
X153020000Y-130175000D03*
X147970000Y-132715000D03*
X153020000Y-132715000D03*
X147970000Y-135255000D03*
X153020000Y-135255000D03*
X147970000Y-137795000D03*
X153020000Y-137795000D03*
X147970000Y-140335000D03*
X153020000Y-140335000D03*
X147970000Y-142875000D03*
X153020000Y-142875000D03*
X147970000Y-145415000D03*
X153020000Y-145415000D03*
X147970000Y-147955000D03*
X153020000Y-147955000D03*
X147970000Y-150495000D03*
X153020000Y-150495000D03*
X147970000Y-153035000D03*
X153020000Y-153035000D03*
D13*
X131572000Y-154686000D03*
X134112000Y-154686000D03*
X136652000Y-154686000D03*
X131572000Y-103124000D03*
X134112000Y-103124000D03*
X136652000Y-103124000D03*
D17*
X124206000Y-117536000D03*
X124206000Y-115636000D03*
X134112000Y-128780500D03*
X134112000Y-130680500D03*
X134112000Y-136400500D03*
X134112000Y-138300500D03*
X134175500Y-145544500D03*
X134175500Y-147444500D03*
D18*
X126516000Y-114029000D03*
X126516000Y-114679000D03*
X126516000Y-115329000D03*
X126516000Y-115979000D03*
X126516000Y-116629000D03*
X126516000Y-117279000D03*
X126516000Y-117929000D03*
X126516000Y-118579000D03*
X126516000Y-119229000D03*
X126516000Y-119879000D03*
X126516000Y-120529000D03*
X126516000Y-121179000D03*
X132216000Y-121179000D03*
X132216000Y-120529000D03*
X132216000Y-119879000D03*
X132216000Y-119229000D03*
X132216000Y-118579000D03*
X132216000Y-117929000D03*
X132216000Y-117279000D03*
X132216000Y-116629000D03*
X132216000Y-115979000D03*
X132216000Y-115329000D03*
X132216000Y-114679000D03*
X132216000Y-114029000D03*
D19*
X129366000Y-117604000D03*
D20*
X131486000Y-129270000D03*
X131486000Y-128770000D03*
X131486000Y-128270000D03*
X131486000Y-127770000D03*
X131486000Y-127270000D03*
X127086000Y-127270000D03*
X127086000Y-127770000D03*
X127086000Y-128270000D03*
X127086000Y-128770000D03*
X127086000Y-129270000D03*
D21*
X129286000Y-128270000D03*
D20*
X131486000Y-136890000D03*
X131486000Y-136390000D03*
X131486000Y-135890000D03*
X131486000Y-135390000D03*
X131486000Y-134890000D03*
X127086000Y-134890000D03*
X127086000Y-135390000D03*
X127086000Y-135890000D03*
X127086000Y-136390000D03*
X127086000Y-136890000D03*
D21*
X129286000Y-135890000D03*
D20*
X131486000Y-146034000D03*
X131486000Y-145534000D03*
X131486000Y-145034000D03*
X131486000Y-144534000D03*
X131486000Y-144034000D03*
X127086000Y-144034000D03*
X127086000Y-144534000D03*
X127086000Y-145034000D03*
X127086000Y-145534000D03*
X127086000Y-146034000D03*
D21*
X129286000Y-145034000D03*
D22*
X122875000Y-131064000D03*
X124775000Y-131064000D03*
X122875000Y-138557000D03*
X124775000Y-138557000D03*
D23*
X120650000Y-148801000D03*
X120650000Y-146601000D03*
D22*
X114239000Y-152400000D03*
X116139000Y-152400000D03*
D24*
X131486000Y-144534000D02*
X132453000Y-144534000D01*
X135001000Y-141986000D02*
X135255000Y-141986000D01*
X132453000Y-144534000D02*
X135001000Y-141986000D01*
D25*
X145923000Y-133985000D02*
X143256000Y-133985000D01*
X143256000Y-133985000D02*
X135255000Y-141986000D01*
D24*
X131486000Y-127770000D02*
X132643500Y-127770000D01*
X135191500Y-125222000D02*
X135763000Y-125222000D01*
X132643500Y-127770000D02*
X135191500Y-125222000D01*
X131486000Y-135390000D02*
X132389500Y-135390000D01*
X135191500Y-132588000D02*
X136080500Y-132588000D01*
X132389500Y-135390000D02*
X135191500Y-132588000D01*
D26*
X131494000Y-135382000D02*
X131486000Y-135390000D01*
D25*
X156464000Y-128016000D02*
X156464000Y-127635000D01*
X137541000Y-132588000D02*
X136080500Y-132588000D01*
X143764000Y-126365000D02*
X137541000Y-132588000D01*
X155194000Y-126365000D02*
X143764000Y-126365000D01*
X156464000Y-127635000D02*
X155194000Y-126365000D01*
X136080500Y-132588000D02*
X131556000Y-132588000D01*
X147970000Y-117475000D02*
X145161000Y-117475000D01*
X145161000Y-117475000D02*
X137414000Y-125222000D01*
X137414000Y-125222000D02*
X135763000Y-125222000D01*
X135763000Y-125222000D02*
X135255000Y-125222000D01*
X135255000Y-125222000D02*
X131556000Y-125222000D01*
X153020000Y-117475000D02*
X155067000Y-117475000D01*
X155067000Y-117475000D02*
X156464000Y-118872000D01*
X147970000Y-117475000D02*
X153020000Y-117475000D01*
X131556000Y-141986000D02*
X135255000Y-141986000D01*
X156464000Y-102616000D02*
X156464000Y-118872000D01*
X156464000Y-118872000D02*
X156464000Y-119761000D01*
X156464000Y-126492000D02*
X156464000Y-119761000D01*
X156464000Y-135128000D02*
X156464000Y-128016000D01*
X156464000Y-128016000D02*
X156464000Y-126492000D01*
X154940000Y-141605000D02*
X155194000Y-141605000D01*
X155194000Y-141605000D02*
X156464000Y-140335000D01*
X136652000Y-154686000D02*
X136652000Y-149860000D01*
X144907000Y-141605000D02*
X154940000Y-141605000D01*
X136652000Y-149860000D02*
X144907000Y-141605000D01*
X155321000Y-133985000D02*
X145923000Y-133985000D01*
X156464000Y-135128000D02*
X155321000Y-133985000D01*
X156464000Y-140335000D02*
X156464000Y-135128000D01*
D26*
X131572000Y-141986000D02*
X131556000Y-141986000D01*
X131572000Y-125222000D02*
X131556000Y-125222000D01*
D25*
X155448000Y-101600000D02*
X156464000Y-102616000D01*
X140462000Y-101600000D02*
X155448000Y-101600000D01*
X111760000Y-104140000D02*
X114300000Y-101600000D01*
X114300000Y-101600000D02*
X140462000Y-101600000D01*
X111760000Y-104140000D02*
X111760000Y-106680000D01*
D26*
X120650000Y-146601000D02*
X121455000Y-146601000D01*
X121920000Y-153543000D02*
X123063000Y-154686000D01*
X121920000Y-147066000D02*
X121920000Y-153543000D01*
X121455000Y-146601000D02*
X121920000Y-147066000D01*
D25*
X113538000Y-146304000D02*
X113538000Y-149479000D01*
X115189000Y-153797000D02*
X116078000Y-154686000D01*
X115189000Y-151130000D02*
X115189000Y-153797000D01*
X113538000Y-149479000D02*
X115189000Y-151130000D01*
X131572000Y-103124000D02*
X131572000Y-104648000D01*
X113538000Y-128778000D02*
X113538000Y-121158000D01*
X113538000Y-121158000D02*
X111760000Y-119380000D01*
X113538000Y-141478000D02*
X113538000Y-128778000D01*
X113538000Y-128778000D02*
X111760000Y-127000000D01*
X113538000Y-146558000D02*
X113538000Y-146304000D01*
X113538000Y-146304000D02*
X113538000Y-141478000D01*
X113538000Y-141478000D02*
X111760000Y-139700000D01*
X111760000Y-144780000D02*
X113538000Y-146558000D01*
X109220000Y-152400000D02*
X109220000Y-153797000D01*
X109220000Y-153797000D02*
X110109000Y-154686000D01*
X114935000Y-154686000D02*
X116078000Y-154686000D01*
X113538000Y-154686000D02*
X114935000Y-154686000D01*
X110109000Y-154686000D02*
X113538000Y-154686000D01*
X116078000Y-154686000D02*
X123063000Y-154686000D01*
X123063000Y-154686000D02*
X131572000Y-154686000D01*
X119650000Y-116332000D02*
X118237000Y-116332000D01*
X118237000Y-116332000D02*
X116967000Y-115062000D01*
X116967000Y-115062000D02*
X116967000Y-112268000D01*
X116967000Y-112268000D02*
X118999000Y-110236000D01*
X118999000Y-110236000D02*
X129032000Y-110236000D01*
D26*
X127086000Y-135890000D02*
X129286000Y-135890000D01*
X127086000Y-127770000D02*
X128786000Y-127770000D01*
X128786000Y-127770000D02*
X129286000Y-128270000D01*
D25*
X134175500Y-147444500D02*
X129286000Y-147444500D01*
X129413000Y-147447000D02*
X129286000Y-147447000D01*
X129288500Y-147447000D02*
X129413000Y-147447000D01*
X129286000Y-147444500D02*
X129288500Y-147447000D01*
X134112000Y-138300500D02*
X129286000Y-138300500D01*
X129349500Y-138303000D02*
X129286000Y-138303000D01*
X129288500Y-138303000D02*
X129349500Y-138303000D01*
X129286000Y-138300500D02*
X129288500Y-138303000D01*
X134112000Y-130680500D02*
X129556000Y-130680500D01*
X129413000Y-130746500D02*
X129556000Y-130746500D01*
X129490000Y-130746500D02*
X129413000Y-130746500D01*
X129556000Y-130680500D02*
X129490000Y-130746500D01*
X129556000Y-141986000D02*
X129556000Y-136160000D01*
X129556000Y-136160000D02*
X129286000Y-135890000D01*
X129556000Y-141986000D02*
X129556000Y-144764000D01*
X129556000Y-144764000D02*
X129286000Y-145034000D01*
X129556000Y-125222000D02*
X129556000Y-128000000D01*
X129556000Y-128000000D02*
X129286000Y-128270000D01*
X129556000Y-125222000D02*
X129556000Y-117794000D01*
X129556000Y-117794000D02*
X129366000Y-117604000D01*
X129556000Y-132588000D02*
X129556000Y-130746500D01*
X129556000Y-130746500D02*
X129556000Y-128540000D01*
X129556000Y-128540000D02*
X129286000Y-128270000D01*
X129556000Y-132588000D02*
X129556000Y-135620000D01*
X129556000Y-135620000D02*
X129286000Y-135890000D01*
X132334000Y-119634000D02*
X131396000Y-119634000D01*
X131396000Y-119634000D02*
X129366000Y-117604000D01*
X132216000Y-119634000D02*
X132334000Y-119634000D01*
X132334000Y-119634000D02*
X137414000Y-119634000D01*
X144653000Y-112395000D02*
X147970000Y-112395000D01*
X137414000Y-119634000D02*
X144653000Y-112395000D01*
X132216000Y-119229000D02*
X132216000Y-119634000D01*
X132216000Y-119634000D02*
X132216000Y-119879000D01*
X131572000Y-154686000D02*
X134112000Y-154686000D01*
X129286000Y-145034000D02*
X129286000Y-147447000D01*
X129286000Y-147447000D02*
X129286000Y-152400000D01*
X129286000Y-152400000D02*
X131572000Y-154686000D01*
X147970000Y-112395000D02*
X153020000Y-112395000D01*
X129286000Y-135890000D02*
X129286000Y-138303000D01*
X129286000Y-138303000D02*
X129286000Y-145034000D01*
X129286000Y-128270000D02*
X129286000Y-130556000D01*
X129286000Y-130556000D02*
X129286000Y-135890000D01*
X129366000Y-117604000D02*
X129366000Y-128190000D01*
X129366000Y-128190000D02*
X129286000Y-128270000D01*
X131842000Y-108712000D02*
X130556000Y-108712000D01*
X129540000Y-109728000D02*
X129540000Y-117430000D01*
X129540000Y-117430000D02*
X129366000Y-117604000D01*
X134112000Y-103124000D02*
X131572000Y-103124000D01*
X132216000Y-119879000D02*
X131641000Y-119879000D01*
X131641000Y-119879000D02*
X129366000Y-117604000D01*
X132216000Y-119229000D02*
X130991000Y-119229000D01*
X130991000Y-119229000D02*
X129366000Y-117604000D01*
X126516000Y-118579000D02*
X128391000Y-118579000D01*
X128391000Y-118579000D02*
X129366000Y-117604000D01*
X126516000Y-116629000D02*
X128391000Y-116629000D01*
X128391000Y-116629000D02*
X129366000Y-117604000D01*
D26*
X119650000Y-118364000D02*
X119650000Y-116332000D01*
X119650000Y-120396000D02*
X119650000Y-118364000D01*
X129556000Y-144764000D02*
X129286000Y-145034000D01*
X129556000Y-128000000D02*
X129286000Y-128270000D01*
X129556000Y-135620000D02*
X129286000Y-135890000D01*
X131486000Y-144034000D02*
X130286000Y-144034000D01*
X130286000Y-144034000D02*
X129286000Y-145034000D01*
X134225500Y-147494500D02*
X134175500Y-147444500D01*
X131486000Y-134890000D02*
X130286000Y-134890000D01*
X130286000Y-134890000D02*
X129286000Y-135890000D01*
X131486000Y-127270000D02*
X130286000Y-127270000D01*
X130286000Y-127270000D02*
X129286000Y-128270000D01*
D25*
X130556000Y-105664000D02*
X130556000Y-108712000D01*
X129032000Y-110236000D02*
X130556000Y-108712000D01*
X130556000Y-108712000D02*
X129540000Y-109728000D01*
X131572000Y-104648000D02*
X130556000Y-105664000D01*
D27*
X130540000Y-111506000D02*
X133223000Y-111506000D01*
X133223000Y-111506000D02*
X133842000Y-110887000D01*
X133842000Y-108712000D02*
X133842000Y-110887000D01*
X133842000Y-110887000D02*
X133842000Y-112403000D01*
X133842000Y-112403000D02*
X132216000Y-114029000D01*
X136652000Y-103124000D02*
X136652000Y-105902000D01*
X136652000Y-105902000D02*
X133842000Y-108712000D01*
D25*
X132216000Y-114679000D02*
X132216000Y-114029000D01*
D26*
X126516000Y-114029000D02*
X125713000Y-114029000D01*
X125730000Y-111506000D02*
X128540000Y-111506000D01*
X125222000Y-112014000D02*
X125730000Y-111506000D01*
X125222000Y-113538000D02*
X125222000Y-112014000D01*
X125713000Y-114029000D02*
X125222000Y-113538000D01*
X126516000Y-114679000D02*
X125601000Y-114679000D01*
X120666000Y-113284000D02*
X119650000Y-114300000D01*
X124206000Y-113284000D02*
X120666000Y-113284000D01*
X125601000Y-114679000D02*
X124206000Y-113284000D01*
X126516000Y-115329000D02*
X125489000Y-115329000D01*
X124460000Y-114300000D02*
X121650000Y-114300000D01*
X125489000Y-115329000D02*
X124460000Y-114300000D01*
X126516000Y-117929000D02*
X125657000Y-117929000D01*
X125222000Y-118364000D02*
X121650000Y-118364000D01*
X125657000Y-117929000D02*
X125222000Y-118364000D01*
X126516000Y-119229000D02*
X122817000Y-119229000D01*
X122817000Y-119229000D02*
X121650000Y-120396000D01*
X124206000Y-117536000D02*
X122854000Y-117536000D01*
X122854000Y-117536000D02*
X121650000Y-116332000D01*
X126516000Y-117279000D02*
X124463000Y-117279000D01*
X124463000Y-117279000D02*
X124206000Y-117536000D01*
X107188000Y-109474000D02*
X107188000Y-112014000D01*
X107188000Y-108204000D02*
X107188000Y-109474000D01*
X108712000Y-106680000D02*
X107188000Y-108204000D01*
X109220000Y-106680000D02*
X108712000Y-106680000D01*
X113538000Y-113030000D02*
X114808000Y-114300000D01*
X108204000Y-113030000D02*
X113538000Y-113030000D01*
X107188000Y-112014000D02*
X108204000Y-113030000D01*
X114808000Y-114300000D02*
X114808000Y-118618000D01*
X122936000Y-122174000D02*
X124460000Y-120650000D01*
X118364000Y-122174000D02*
X122936000Y-122174000D01*
X123825000Y-135890000D02*
X123825000Y-144145000D01*
X125214000Y-145534000D02*
X127086000Y-145534000D01*
X123825000Y-144145000D02*
X125214000Y-145534000D01*
X123825000Y-128270000D02*
X123825000Y-135890000D01*
X124325000Y-136390000D02*
X127086000Y-136390000D01*
X123825000Y-135890000D02*
X124325000Y-136390000D01*
X126516000Y-120529000D02*
X124581000Y-120529000D01*
X124581000Y-120529000D02*
X124460000Y-120650000D01*
X124325000Y-128770000D02*
X127086000Y-128770000D01*
X123825000Y-128270000D02*
X124325000Y-128770000D01*
X123825000Y-121285000D02*
X123825000Y-128270000D01*
X124460000Y-120650000D02*
X123825000Y-121285000D01*
X114808000Y-118618000D02*
X118364000Y-122174000D01*
X122875000Y-138557000D02*
X122428000Y-138557000D01*
X122428000Y-138557000D02*
X122428000Y-138430000D01*
X122875000Y-131064000D02*
X122809000Y-131064000D01*
X122809000Y-131064000D02*
X122428000Y-130683000D01*
X110490000Y-107950000D02*
X113601500Y-107950000D01*
X115316000Y-109664500D02*
X115316000Y-112649000D01*
X113601500Y-107950000D02*
X115316000Y-109664500D01*
X109220000Y-109220000D02*
X110490000Y-107950000D01*
X110490000Y-102362000D02*
X110172500Y-102044500D01*
X110490000Y-106172000D02*
X110490000Y-102362000D01*
X110490000Y-107950000D02*
X110490000Y-106172000D01*
X115316000Y-112649000D02*
X115316000Y-113030000D01*
X124596000Y-119879000D02*
X122809000Y-121666000D01*
X122809000Y-121666000D02*
X118618000Y-121666000D01*
X118618000Y-121666000D02*
X115316000Y-118364000D01*
X126516000Y-119879000D02*
X124596000Y-119879000D01*
X115316000Y-113030000D02*
X115316000Y-118364000D01*
X106743500Y-103124000D02*
X107823000Y-102044500D01*
X110172500Y-102044500D02*
X107823000Y-102044500D01*
X120523000Y-125349000D02*
X122428000Y-127254000D01*
X124571000Y-146034000D02*
X127086000Y-146034000D01*
X122428000Y-143891000D02*
X124571000Y-146034000D01*
X122428000Y-127254000D02*
X122428000Y-130683000D01*
X122428000Y-130683000D02*
X122428000Y-138430000D01*
X122428000Y-138430000D02*
X122428000Y-143891000D01*
X114109500Y-118935500D02*
X120523000Y-125349000D01*
X106743500Y-108077000D02*
X106743500Y-103124000D01*
X106743500Y-108077000D02*
X106743500Y-114300000D01*
X106743500Y-114300000D02*
X108013500Y-115570000D01*
X108013500Y-115570000D02*
X113601500Y-115570000D01*
X113601500Y-115570000D02*
X114109500Y-116078000D01*
X114109500Y-116078000D02*
X114109500Y-118935500D01*
X153020000Y-150495000D02*
X155702000Y-150495000D01*
X155702000Y-150495000D02*
X156464000Y-151257000D01*
D25*
X147970000Y-150495000D02*
X153020000Y-150495000D01*
D26*
X107315000Y-116840000D02*
X109220000Y-116840000D01*
X106045000Y-118110000D02*
X107315000Y-116840000D01*
X106045000Y-154813000D02*
X106045000Y-118110000D01*
X108642006Y-157410006D02*
X106045000Y-154813000D01*
X152723994Y-157410006D02*
X108642006Y-157410006D01*
X156464000Y-153670000D02*
X152723994Y-157410006D01*
X156464000Y-151257000D02*
X156464000Y-153670000D01*
X111760000Y-116840000D02*
X110490000Y-118110000D01*
X106553000Y-118999000D02*
X106553000Y-154686000D01*
X107442000Y-118110000D02*
X106553000Y-118999000D01*
X110490000Y-118110000D02*
X107442000Y-118110000D01*
X144653000Y-153035000D02*
X147970000Y-153035000D01*
X140677996Y-157010004D02*
X144653000Y-153035000D01*
X108877004Y-157010004D02*
X140677996Y-157010004D01*
X106553000Y-154686000D02*
X108877004Y-157010004D01*
D25*
X153020000Y-153035000D02*
X147970000Y-153035000D01*
D26*
X144526000Y-147701000D02*
X145542000Y-146685000D01*
X144526000Y-152146000D02*
X144526000Y-147701000D01*
X153020000Y-142875000D02*
X155575000Y-142875000D01*
X155575000Y-142875000D02*
X156464000Y-143764000D01*
X156464000Y-143764000D02*
X156464000Y-145669000D01*
X156464000Y-145669000D02*
X155448000Y-146685000D01*
X155448000Y-146685000D02*
X145542000Y-146685000D01*
X107760000Y-142240000D02*
X109220000Y-142240000D01*
D25*
X147970000Y-142875000D02*
X153020000Y-142875000D01*
D26*
X138303000Y-156610002D02*
X140061998Y-156610002D01*
X140061998Y-156610002D02*
X144526000Y-152146000D01*
X107041998Y-142958002D02*
X107760000Y-142240000D01*
X107041998Y-154541998D02*
X107041998Y-142958002D01*
X109110002Y-156610002D02*
X107041998Y-154541998D01*
X138303000Y-156610002D02*
X109110002Y-156610002D01*
X107442000Y-145288000D02*
X107442000Y-154305000D01*
X107950000Y-144780000D02*
X107442000Y-145288000D01*
X138303000Y-156210000D02*
X139573000Y-156210000D01*
X144018000Y-146177000D02*
X144780000Y-145415000D01*
X144018000Y-151765000D02*
X144018000Y-146177000D01*
X139573000Y-156210000D02*
X144018000Y-151765000D01*
X109220000Y-144780000D02*
X107950000Y-144780000D01*
X144780000Y-145415000D02*
X147970000Y-145415000D01*
X109347000Y-156210000D02*
X138303000Y-156210000D01*
X107442000Y-154305000D02*
X109347000Y-156210000D01*
D25*
X153020000Y-145415000D02*
X147970000Y-145415000D01*
D26*
X111760000Y-152400000D02*
X114239000Y-152400000D01*
D25*
X144780000Y-104775000D02*
X147970000Y-104775000D01*
X133858000Y-115697000D02*
X144780000Y-104775000D01*
X132216000Y-115697000D02*
X133858000Y-115697000D01*
X147970000Y-104775000D02*
X153020000Y-104775000D01*
X132216000Y-115329000D02*
X132216000Y-115697000D01*
X132216000Y-115697000D02*
X132216000Y-115979000D01*
X144780000Y-107315000D02*
X147970000Y-107315000D01*
X135128000Y-116967000D02*
X144780000Y-107315000D01*
X132216000Y-116967000D02*
X135128000Y-116967000D01*
X147970000Y-107315000D02*
X153020000Y-107315000D01*
X132216000Y-116629000D02*
X132216000Y-116967000D01*
X132216000Y-116967000D02*
X132216000Y-117279000D01*
X132216000Y-118237000D02*
X136271000Y-118237000D01*
X144653000Y-109855000D02*
X147970000Y-109855000D01*
X136271000Y-118237000D02*
X144653000Y-109855000D01*
X147970000Y-109855000D02*
X153020000Y-109855000D01*
X132216000Y-118579000D02*
X132216000Y-118237000D01*
X132216000Y-118237000D02*
X132216000Y-117929000D01*
D26*
X147970000Y-114935000D02*
X153020000Y-114935000D01*
X132216000Y-120529000D02*
X138551000Y-120529000D01*
X144145000Y-114935000D02*
X147970000Y-114935000D01*
X138551000Y-120529000D02*
X144145000Y-114935000D01*
D24*
X131486000Y-129270000D02*
X132572000Y-129270000D01*
X143192500Y-125095000D02*
X147970000Y-125095000D01*
X138557000Y-129730500D02*
X143192500Y-125095000D01*
X133032500Y-129730500D02*
X138557000Y-129730500D01*
X132572000Y-129270000D02*
X133032500Y-129730500D01*
D25*
X147970000Y-125095000D02*
X153020000Y-125095000D01*
D24*
X147970000Y-122555000D02*
X143383000Y-122555000D01*
X143383000Y-122555000D02*
X138049000Y-127889000D01*
X131486000Y-128270000D02*
X132969000Y-128270000D01*
X132969000Y-128270000D02*
X133350000Y-127889000D01*
X133350000Y-127889000D02*
X138049000Y-127889000D01*
D25*
X147970000Y-122555000D02*
X153020000Y-122555000D01*
D24*
X147970000Y-130175000D02*
X153020000Y-130175000D01*
X131486000Y-136890000D02*
X132381500Y-136890000D01*
X144653000Y-130175000D02*
X147970000Y-130175000D01*
X137477500Y-137350500D02*
X144653000Y-130175000D01*
X132842000Y-137350500D02*
X137477500Y-137350500D01*
X132381500Y-136890000D02*
X132842000Y-137350500D01*
X131486000Y-135890000D02*
X132651500Y-135890000D01*
X144589500Y-127635000D02*
X147970000Y-127635000D01*
X136779000Y-135445500D02*
X144589500Y-127635000D01*
X133096000Y-135445500D02*
X136779000Y-135445500D01*
X132651500Y-135890000D02*
X133096000Y-135445500D01*
D25*
X147970000Y-127635000D02*
X153020000Y-127635000D01*
D24*
X131486000Y-146034000D02*
X132572000Y-146034000D01*
X144589500Y-137795000D02*
X147970000Y-137795000D01*
X135890000Y-146494500D02*
X144589500Y-137795000D01*
X133032500Y-146494500D02*
X135890000Y-146494500D01*
X132572000Y-146034000D02*
X133032500Y-146494500D01*
D25*
X147970000Y-137795000D02*
X153020000Y-137795000D01*
D24*
X131486000Y-145034000D02*
X132651500Y-145034000D01*
X144589500Y-135255000D02*
X147970000Y-135255000D01*
X135255000Y-144589500D02*
X144589500Y-135255000D01*
X133096000Y-144589500D02*
X135255000Y-144589500D01*
X132651500Y-145034000D02*
X133096000Y-144589500D01*
D25*
X147970000Y-135255000D02*
X153020000Y-135255000D01*
D26*
X126516000Y-115979000D02*
X124549000Y-115979000D01*
X124549000Y-115979000D02*
X124206000Y-115636000D01*
X131486000Y-128770000D02*
X134101500Y-128770000D01*
X134101500Y-128770000D02*
X134112000Y-128780500D01*
X131486000Y-136390000D02*
X134101500Y-136390000D01*
X134101500Y-136390000D02*
X134112000Y-136400500D01*
X131486000Y-145534000D02*
X134165000Y-145534000D01*
X134165000Y-145534000D02*
X134175500Y-145544500D01*
X127086000Y-136890000D02*
X126000000Y-136890000D01*
X126000000Y-136890000D02*
X124775000Y-138115000D01*
X124775000Y-138115000D02*
X124775000Y-138557000D01*
X127086000Y-129270000D02*
X126000000Y-129270000D01*
X126000000Y-129270000D02*
X124775000Y-130495000D01*
X124775000Y-130495000D02*
X124775000Y-131064000D01*
X120650000Y-148801000D02*
X120650000Y-151257000D01*
X119507000Y-152400000D02*
X116139000Y-152400000D01*
X120650000Y-151257000D02*
X119507000Y-152400000D01*
D28*
G36*
X129638032Y-112522012D02*
X129821827Y-112647594D01*
X130040000Y-112691775D01*
X131040000Y-112691775D01*
X131243818Y-112653424D01*
X131431012Y-112532968D01*
X131483602Y-112456000D01*
X132445497Y-112456000D01*
X131625688Y-113275810D01*
X131462182Y-113306576D01*
X131274988Y-113427032D01*
X131149406Y-113610827D01*
X131105225Y-113829000D01*
X131105225Y-114229000D01*
X131129609Y-114358589D01*
X131105225Y-114479000D01*
X131105225Y-114847873D01*
X131082268Y-114792450D01*
X130927550Y-114637733D01*
X130725402Y-114554000D01*
X129553500Y-114554000D01*
X129416000Y-114691500D01*
X129416000Y-117554000D01*
X129436000Y-117554000D01*
X129436000Y-117654000D01*
X129416000Y-117654000D01*
X129416000Y-120516500D01*
X129553500Y-120654000D01*
X130725402Y-120654000D01*
X130927550Y-120570267D01*
X131082268Y-120415550D01*
X131105225Y-120360127D01*
X131105225Y-120729000D01*
X131129609Y-120858589D01*
X131105225Y-120979000D01*
X131105225Y-121379000D01*
X131143576Y-121582818D01*
X131264032Y-121770012D01*
X131447827Y-121895594D01*
X131666000Y-121939775D01*
X132766000Y-121939775D01*
X132969818Y-121901424D01*
X133157012Y-121780968D01*
X133282594Y-121597173D01*
X133326775Y-121379000D01*
X133326775Y-121179000D01*
X135232000Y-121179000D01*
X135232000Y-124472000D01*
X132593255Y-124472000D01*
X132578424Y-124393182D01*
X132457968Y-124205988D01*
X132274173Y-124080406D01*
X132056000Y-124036225D01*
X131056000Y-124036225D01*
X130852182Y-124074576D01*
X130664988Y-124195032D01*
X130552816Y-124359200D01*
X130522268Y-124285450D01*
X130367550Y-124130733D01*
X130165402Y-124047000D01*
X129743500Y-124047000D01*
X129606000Y-124184500D01*
X129606000Y-125172000D01*
X129626000Y-125172000D01*
X129626000Y-125272000D01*
X129606000Y-125272000D01*
X129606000Y-126259500D01*
X129743500Y-126397000D01*
X130165402Y-126397000D01*
X130367550Y-126313267D01*
X130522268Y-126158550D01*
X130553845Y-126082317D01*
X130654032Y-126238012D01*
X130837827Y-126363594D01*
X131056000Y-126407775D01*
X132056000Y-126407775D01*
X132259818Y-126369424D01*
X132447012Y-126248968D01*
X132572594Y-126065173D01*
X132591462Y-125972000D01*
X133486906Y-125972000D01*
X132651362Y-126807544D01*
X132497550Y-126653733D01*
X132295402Y-126570000D01*
X131673500Y-126570000D01*
X131536000Y-126707500D01*
X131536000Y-127059225D01*
X131436000Y-127059225D01*
X131436000Y-126707500D01*
X131298500Y-126570000D01*
X130676598Y-126570000D01*
X130474450Y-126653733D01*
X130404439Y-126723743D01*
X130395402Y-126720000D01*
X129473500Y-126720000D01*
X129336000Y-126857500D01*
X129336000Y-128220000D01*
X129356000Y-128220000D01*
X129356000Y-128320000D01*
X129336000Y-128320000D01*
X129336000Y-129682500D01*
X129473500Y-129820000D01*
X130395402Y-129820000D01*
X130396513Y-129819540D01*
X130567827Y-129936594D01*
X130786000Y-129980775D01*
X132186000Y-129980775D01*
X132305665Y-129958259D01*
X132555203Y-130207797D01*
X132774189Y-130354119D01*
X132912000Y-130381531D01*
X132912000Y-130493000D01*
X133049500Y-130630500D01*
X134062000Y-130630500D01*
X134062000Y-130610500D01*
X134162000Y-130610500D01*
X134162000Y-130630500D01*
X134182000Y-130630500D01*
X134182000Y-130730500D01*
X134162000Y-130730500D01*
X134162000Y-131443000D01*
X134299500Y-131580500D01*
X134871402Y-131580500D01*
X135073550Y-131496768D01*
X135228267Y-131342050D01*
X135232000Y-131333038D01*
X135232000Y-131838000D01*
X132593255Y-131838000D01*
X132578424Y-131759182D01*
X132457968Y-131571988D01*
X132274173Y-131446406D01*
X132056000Y-131402225D01*
X131056000Y-131402225D01*
X130852182Y-131440576D01*
X130664988Y-131561032D01*
X130552816Y-131725200D01*
X130522268Y-131651450D01*
X130367550Y-131496733D01*
X130165402Y-131413000D01*
X129743500Y-131413000D01*
X129606000Y-131550500D01*
X129606000Y-132538000D01*
X129626000Y-132538000D01*
X129626000Y-132638000D01*
X129606000Y-132638000D01*
X129606000Y-133625500D01*
X129743500Y-133763000D01*
X130165402Y-133763000D01*
X130367550Y-133679267D01*
X130522268Y-133524550D01*
X130553845Y-133448317D01*
X130654032Y-133604012D01*
X130837827Y-133729594D01*
X131056000Y-133773775D01*
X132056000Y-133773775D01*
X132259818Y-133735424D01*
X132447012Y-133614968D01*
X132572594Y-133431173D01*
X132591462Y-133338000D01*
X133486906Y-133338000D01*
X132524362Y-134300544D01*
X132497550Y-134273733D01*
X132295402Y-134190000D01*
X131673500Y-134190000D01*
X131536000Y-134327500D01*
X131536000Y-134679225D01*
X131436000Y-134679225D01*
X131436000Y-134327500D01*
X131298500Y-134190000D01*
X130676598Y-134190000D01*
X130474450Y-134273733D01*
X130404439Y-134343743D01*
X130395402Y-134340000D01*
X129473500Y-134340000D01*
X129336000Y-134477500D01*
X129336000Y-135840000D01*
X129356000Y-135840000D01*
X129356000Y-135940000D01*
X129336000Y-135940000D01*
X129336000Y-137302500D01*
X129473500Y-137440000D01*
X130395402Y-137440000D01*
X130396513Y-137439540D01*
X130567827Y-137556594D01*
X130786000Y-137600775D01*
X132137681Y-137600775D01*
X132364703Y-137827797D01*
X132583689Y-137974119D01*
X132842000Y-138025500D01*
X132912000Y-138025500D01*
X132912000Y-138113000D01*
X133049500Y-138250500D01*
X134062000Y-138250500D01*
X134062000Y-138230500D01*
X134162000Y-138230500D01*
X134162000Y-138250500D01*
X134182000Y-138250500D01*
X134182000Y-138350500D01*
X134162000Y-138350500D01*
X134162000Y-139063000D01*
X134299500Y-139200500D01*
X134871402Y-139200500D01*
X135073550Y-139116768D01*
X135228267Y-138962050D01*
X135232000Y-138953038D01*
X135232000Y-140948340D01*
X134944340Y-141236000D01*
X132593255Y-141236000D01*
X132578424Y-141157182D01*
X132457968Y-140969988D01*
X132274173Y-140844406D01*
X132056000Y-140800225D01*
X131056000Y-140800225D01*
X130852182Y-140838576D01*
X130664988Y-140959032D01*
X130552816Y-141123200D01*
X130522268Y-141049450D01*
X130367550Y-140894733D01*
X130165402Y-140811000D01*
X129743500Y-140811000D01*
X129606000Y-140948500D01*
X129606000Y-141936000D01*
X129626000Y-141936000D01*
X129626000Y-142036000D01*
X129606000Y-142036000D01*
X129606000Y-143023500D01*
X129743500Y-143161000D01*
X130165402Y-143161000D01*
X130367550Y-143077267D01*
X130522268Y-142922550D01*
X130553845Y-142846317D01*
X130654032Y-143002012D01*
X130837827Y-143127594D01*
X131056000Y-143171775D01*
X132056000Y-143171775D01*
X132259818Y-143133424D01*
X132447012Y-143012968D01*
X132572594Y-142829173D01*
X132591462Y-142736000D01*
X133296406Y-142736000D01*
X132556112Y-143476294D01*
X132497550Y-143417733D01*
X132295402Y-143334000D01*
X131673500Y-143334000D01*
X131536000Y-143471500D01*
X131536000Y-143823225D01*
X131436000Y-143823225D01*
X131436000Y-143471500D01*
X131298500Y-143334000D01*
X130676598Y-143334000D01*
X130474450Y-143417733D01*
X130404439Y-143487743D01*
X130395402Y-143484000D01*
X129473500Y-143484000D01*
X129336000Y-143621500D01*
X129336000Y-144984000D01*
X129356000Y-144984000D01*
X129356000Y-145084000D01*
X129336000Y-145084000D01*
X129336000Y-146446500D01*
X129473500Y-146584000D01*
X130395402Y-146584000D01*
X130396513Y-146583540D01*
X130567827Y-146700594D01*
X130786000Y-146744775D01*
X132186000Y-146744775D01*
X132305665Y-146722259D01*
X132555203Y-146971797D01*
X132774189Y-147118119D01*
X132975500Y-147158162D01*
X132975500Y-147257000D01*
X133113000Y-147394500D01*
X134125500Y-147394500D01*
X134125500Y-147374500D01*
X134225500Y-147374500D01*
X134225500Y-147394500D01*
X134245500Y-147394500D01*
X134245500Y-147494500D01*
X134225500Y-147494500D01*
X134225500Y-148207000D01*
X134363000Y-148344500D01*
X134934902Y-148344500D01*
X135137050Y-148260768D01*
X135232000Y-148165817D01*
X135232000Y-153281811D01*
X135121402Y-153236000D01*
X134299500Y-153236000D01*
X134162000Y-153373500D01*
X134162000Y-154636000D01*
X134182000Y-154636000D01*
X134182000Y-154736000D01*
X134162000Y-154736000D01*
X134162000Y-154756000D01*
X134062000Y-154756000D01*
X134062000Y-154736000D01*
X131622000Y-154736000D01*
X131622000Y-154756000D01*
X131522000Y-154756000D01*
X131522000Y-154736000D01*
X130259500Y-154736000D01*
X130122000Y-154873500D01*
X130122000Y-155552000D01*
X126769000Y-155552000D01*
X126769000Y-153676598D01*
X130122000Y-153676598D01*
X130122000Y-154498500D01*
X130259500Y-154636000D01*
X131522000Y-154636000D01*
X131522000Y-153373500D01*
X131622000Y-153373500D01*
X131622000Y-154636000D01*
X134062000Y-154636000D01*
X134062000Y-153373500D01*
X133924500Y-153236000D01*
X133102598Y-153236000D01*
X132900450Y-153319732D01*
X132842000Y-153378182D01*
X132783550Y-153319732D01*
X132581402Y-153236000D01*
X131759500Y-153236000D01*
X131622000Y-153373500D01*
X131522000Y-153373500D01*
X131384500Y-153236000D01*
X130562598Y-153236000D01*
X130360450Y-153319732D01*
X130205733Y-153474450D01*
X130122000Y-153676598D01*
X126769000Y-153676598D01*
X126769000Y-147632000D01*
X132975500Y-147632000D01*
X132975500Y-147903902D01*
X133059233Y-148106050D01*
X133213950Y-148260768D01*
X133416098Y-148344500D01*
X133988000Y-148344500D01*
X134125500Y-148207000D01*
X134125500Y-147494500D01*
X133113000Y-147494500D01*
X132975500Y-147632000D01*
X126769000Y-147632000D01*
X126769000Y-146744775D01*
X127786000Y-146744775D01*
X127989818Y-146706424D01*
X128177012Y-146585968D01*
X128178357Y-146584000D01*
X129098500Y-146584000D01*
X129236000Y-146446500D01*
X129236000Y-145084000D01*
X129216000Y-145084000D01*
X129216000Y-144984000D01*
X129236000Y-144984000D01*
X129236000Y-143621500D01*
X129098500Y-143484000D01*
X128176598Y-143484000D01*
X128175487Y-143484460D01*
X128004173Y-143367406D01*
X127786000Y-143323225D01*
X126769000Y-143323225D01*
X126769000Y-142173500D01*
X128506000Y-142173500D01*
X128506000Y-142720402D01*
X128589732Y-142922550D01*
X128744450Y-143077267D01*
X128946598Y-143161000D01*
X129368500Y-143161000D01*
X129506000Y-143023500D01*
X129506000Y-142036000D01*
X128643500Y-142036000D01*
X128506000Y-142173500D01*
X126769000Y-142173500D01*
X126769000Y-141251598D01*
X128506000Y-141251598D01*
X128506000Y-141798500D01*
X128643500Y-141936000D01*
X129506000Y-141936000D01*
X129506000Y-140948500D01*
X129368500Y-140811000D01*
X128946598Y-140811000D01*
X128744450Y-140894733D01*
X128589732Y-141049450D01*
X128506000Y-141251598D01*
X126769000Y-141251598D01*
X126769000Y-138488000D01*
X132912000Y-138488000D01*
X132912000Y-138759902D01*
X132995733Y-138962050D01*
X133150450Y-139116768D01*
X133352598Y-139200500D01*
X133924500Y-139200500D01*
X134062000Y-139063000D01*
X134062000Y-138350500D01*
X133049500Y-138350500D01*
X132912000Y-138488000D01*
X126769000Y-138488000D01*
X126769000Y-137600775D01*
X127786000Y-137600775D01*
X127989818Y-137562424D01*
X128177012Y-137441968D01*
X128178357Y-137440000D01*
X129098500Y-137440000D01*
X129236000Y-137302500D01*
X129236000Y-135940000D01*
X129216000Y-135940000D01*
X129216000Y-135840000D01*
X129236000Y-135840000D01*
X129236000Y-134477500D01*
X129098500Y-134340000D01*
X128176598Y-134340000D01*
X128175487Y-134340460D01*
X128004173Y-134223406D01*
X127786000Y-134179225D01*
X126769000Y-134179225D01*
X126769000Y-132775500D01*
X128506000Y-132775500D01*
X128506000Y-133322402D01*
X128589732Y-133524550D01*
X128744450Y-133679267D01*
X128946598Y-133763000D01*
X129368500Y-133763000D01*
X129506000Y-133625500D01*
X129506000Y-132638000D01*
X128643500Y-132638000D01*
X128506000Y-132775500D01*
X126769000Y-132775500D01*
X126769000Y-131853598D01*
X128506000Y-131853598D01*
X128506000Y-132400500D01*
X128643500Y-132538000D01*
X129506000Y-132538000D01*
X129506000Y-131550500D01*
X129368500Y-131413000D01*
X128946598Y-131413000D01*
X128744450Y-131496733D01*
X128589732Y-131651450D01*
X128506000Y-131853598D01*
X126769000Y-131853598D01*
X126769000Y-130868000D01*
X132912000Y-130868000D01*
X132912000Y-131139902D01*
X132995733Y-131342050D01*
X133150450Y-131496768D01*
X133352598Y-131580500D01*
X133924500Y-131580500D01*
X134062000Y-131443000D01*
X134062000Y-130730500D01*
X133049500Y-130730500D01*
X132912000Y-130868000D01*
X126769000Y-130868000D01*
X126769000Y-129980775D01*
X127786000Y-129980775D01*
X127989818Y-129942424D01*
X128177012Y-129821968D01*
X128178357Y-129820000D01*
X129098500Y-129820000D01*
X129236000Y-129682500D01*
X129236000Y-128320000D01*
X129216000Y-128320000D01*
X129216000Y-128220000D01*
X129236000Y-128220000D01*
X129236000Y-126857500D01*
X129098500Y-126720000D01*
X128176598Y-126720000D01*
X128175487Y-126720460D01*
X128004173Y-126603406D01*
X127786000Y-126559225D01*
X126769000Y-126559225D01*
X126769000Y-126365000D01*
X126757182Y-126306642D01*
X126725066Y-126258934D01*
X125875632Y-125409500D01*
X128506000Y-125409500D01*
X128506000Y-125956402D01*
X128589732Y-126158550D01*
X128744450Y-126313267D01*
X128946598Y-126397000D01*
X129368500Y-126397000D01*
X129506000Y-126259500D01*
X129506000Y-125272000D01*
X128643500Y-125272000D01*
X128506000Y-125409500D01*
X125875632Y-125409500D01*
X124953730Y-124487598D01*
X128506000Y-124487598D01*
X128506000Y-125034500D01*
X128643500Y-125172000D01*
X129506000Y-125172000D01*
X129506000Y-124184500D01*
X129368500Y-124047000D01*
X128946598Y-124047000D01*
X128744450Y-124130733D01*
X128589732Y-124285450D01*
X128506000Y-124487598D01*
X124953730Y-124487598D01*
X124475000Y-124008868D01*
X124475000Y-122832000D01*
X127762000Y-122832000D01*
X127816519Y-122821742D01*
X127866591Y-122789521D01*
X127900182Y-122740358D01*
X127912000Y-122682000D01*
X127912000Y-120614816D01*
X128006598Y-120654000D01*
X129178500Y-120654000D01*
X129316000Y-120516500D01*
X129316000Y-117654000D01*
X129296000Y-117654000D01*
X129296000Y-117554000D01*
X129316000Y-117554000D01*
X129316000Y-114691500D01*
X129178500Y-114554000D01*
X128006598Y-114554000D01*
X127912000Y-114593184D01*
X127912000Y-112665854D01*
X128040000Y-112691775D01*
X129040000Y-112691775D01*
X129243818Y-112653424D01*
X129431012Y-112532968D01*
X129541257Y-112371619D01*
X129638032Y-112522012D01*
X129638032Y-112522012D01*
G37*
X129638032Y-112522012D02*
X129821827Y-112647594D01*
X130040000Y-112691775D01*
X131040000Y-112691775D01*
X131243818Y-112653424D01*
X131431012Y-112532968D01*
X131483602Y-112456000D01*
X132445497Y-112456000D01*
X131625688Y-113275810D01*
X131462182Y-113306576D01*
X131274988Y-113427032D01*
X131149406Y-113610827D01*
X131105225Y-113829000D01*
X131105225Y-114229000D01*
X131129609Y-114358589D01*
X131105225Y-114479000D01*
X131105225Y-114847873D01*
X131082268Y-114792450D01*
X130927550Y-114637733D01*
X130725402Y-114554000D01*
X129553500Y-114554000D01*
X129416000Y-114691500D01*
X129416000Y-117554000D01*
X129436000Y-117554000D01*
X129436000Y-117654000D01*
X129416000Y-117654000D01*
X129416000Y-120516500D01*
X129553500Y-120654000D01*
X130725402Y-120654000D01*
X130927550Y-120570267D01*
X131082268Y-120415550D01*
X131105225Y-120360127D01*
X131105225Y-120729000D01*
X131129609Y-120858589D01*
X131105225Y-120979000D01*
X131105225Y-121379000D01*
X131143576Y-121582818D01*
X131264032Y-121770012D01*
X131447827Y-121895594D01*
X131666000Y-121939775D01*
X132766000Y-121939775D01*
X132969818Y-121901424D01*
X133157012Y-121780968D01*
X133282594Y-121597173D01*
X133326775Y-121379000D01*
X133326775Y-121179000D01*
X135232000Y-121179000D01*
X135232000Y-124472000D01*
X132593255Y-124472000D01*
X132578424Y-124393182D01*
X132457968Y-124205988D01*
X132274173Y-124080406D01*
X132056000Y-124036225D01*
X131056000Y-124036225D01*
X130852182Y-124074576D01*
X130664988Y-124195032D01*
X130552816Y-124359200D01*
X130522268Y-124285450D01*
X130367550Y-124130733D01*
X130165402Y-124047000D01*
X129743500Y-124047000D01*
X129606000Y-124184500D01*
X129606000Y-125172000D01*
X129626000Y-125172000D01*
X129626000Y-125272000D01*
X129606000Y-125272000D01*
X129606000Y-126259500D01*
X129743500Y-126397000D01*
X130165402Y-126397000D01*
X130367550Y-126313267D01*
X130522268Y-126158550D01*
X130553845Y-126082317D01*
X130654032Y-126238012D01*
X130837827Y-126363594D01*
X131056000Y-126407775D01*
X132056000Y-126407775D01*
X132259818Y-126369424D01*
X132447012Y-126248968D01*
X132572594Y-126065173D01*
X132591462Y-125972000D01*
X133486906Y-125972000D01*
X132651362Y-126807544D01*
X132497550Y-126653733D01*
X132295402Y-126570000D01*
X131673500Y-126570000D01*
X131536000Y-126707500D01*
X131536000Y-127059225D01*
X131436000Y-127059225D01*
X131436000Y-126707500D01*
X131298500Y-126570000D01*
X130676598Y-126570000D01*
X130474450Y-126653733D01*
X130404439Y-126723743D01*
X130395402Y-126720000D01*
X129473500Y-126720000D01*
X129336000Y-126857500D01*
X129336000Y-128220000D01*
X129356000Y-128220000D01*
X129356000Y-128320000D01*
X129336000Y-128320000D01*
X129336000Y-129682500D01*
X129473500Y-129820000D01*
X130395402Y-129820000D01*
X130396513Y-129819540D01*
X130567827Y-129936594D01*
X130786000Y-129980775D01*
X132186000Y-129980775D01*
X132305665Y-129958259D01*
X132555203Y-130207797D01*
X132774189Y-130354119D01*
X132912000Y-130381531D01*
X132912000Y-130493000D01*
X133049500Y-130630500D01*
X134062000Y-130630500D01*
X134062000Y-130610500D01*
X134162000Y-130610500D01*
X134162000Y-130630500D01*
X134182000Y-130630500D01*
X134182000Y-130730500D01*
X134162000Y-130730500D01*
X134162000Y-131443000D01*
X134299500Y-131580500D01*
X134871402Y-131580500D01*
X135073550Y-131496768D01*
X135228267Y-131342050D01*
X135232000Y-131333038D01*
X135232000Y-131838000D01*
X132593255Y-131838000D01*
X132578424Y-131759182D01*
X132457968Y-131571988D01*
X132274173Y-131446406D01*
X132056000Y-131402225D01*
X131056000Y-131402225D01*
X130852182Y-131440576D01*
X130664988Y-131561032D01*
X130552816Y-131725200D01*
X130522268Y-131651450D01*
X130367550Y-131496733D01*
X130165402Y-131413000D01*
X129743500Y-131413000D01*
X129606000Y-131550500D01*
X129606000Y-132538000D01*
X129626000Y-132538000D01*
X129626000Y-132638000D01*
X129606000Y-132638000D01*
X129606000Y-133625500D01*
X129743500Y-133763000D01*
X130165402Y-133763000D01*
X130367550Y-133679267D01*
X130522268Y-133524550D01*
X130553845Y-133448317D01*
X130654032Y-133604012D01*
X130837827Y-133729594D01*
X131056000Y-133773775D01*
X132056000Y-133773775D01*
X132259818Y-133735424D01*
X132447012Y-133614968D01*
X132572594Y-133431173D01*
X132591462Y-133338000D01*
X133486906Y-133338000D01*
X132524362Y-134300544D01*
X132497550Y-134273733D01*
X132295402Y-134190000D01*
X131673500Y-134190000D01*
X131536000Y-134327500D01*
X131536000Y-134679225D01*
X131436000Y-134679225D01*
X131436000Y-134327500D01*
X131298500Y-134190000D01*
X130676598Y-134190000D01*
X130474450Y-134273733D01*
X130404439Y-134343743D01*
X130395402Y-134340000D01*
X129473500Y-134340000D01*
X129336000Y-134477500D01*
X129336000Y-135840000D01*
X129356000Y-135840000D01*
X129356000Y-135940000D01*
X129336000Y-135940000D01*
X129336000Y-137302500D01*
X129473500Y-137440000D01*
X130395402Y-137440000D01*
X130396513Y-137439540D01*
X130567827Y-137556594D01*
X130786000Y-137600775D01*
X132137681Y-137600775D01*
X132364703Y-137827797D01*
X132583689Y-137974119D01*
X132842000Y-138025500D01*
X132912000Y-138025500D01*
X132912000Y-138113000D01*
X133049500Y-138250500D01*
X134062000Y-138250500D01*
X134062000Y-138230500D01*
X134162000Y-138230500D01*
X134162000Y-138250500D01*
X134182000Y-138250500D01*
X134182000Y-138350500D01*
X134162000Y-138350500D01*
X134162000Y-139063000D01*
X134299500Y-139200500D01*
X134871402Y-139200500D01*
X135073550Y-139116768D01*
X135228267Y-138962050D01*
X135232000Y-138953038D01*
X135232000Y-140948340D01*
X134944340Y-141236000D01*
X132593255Y-141236000D01*
X132578424Y-141157182D01*
X132457968Y-140969988D01*
X132274173Y-140844406D01*
X132056000Y-140800225D01*
X131056000Y-140800225D01*
X130852182Y-140838576D01*
X130664988Y-140959032D01*
X130552816Y-141123200D01*
X130522268Y-141049450D01*
X130367550Y-140894733D01*
X130165402Y-140811000D01*
X129743500Y-140811000D01*
X129606000Y-140948500D01*
X129606000Y-141936000D01*
X129626000Y-141936000D01*
X129626000Y-142036000D01*
X129606000Y-142036000D01*
X129606000Y-143023500D01*
X129743500Y-143161000D01*
X130165402Y-143161000D01*
X130367550Y-143077267D01*
X130522268Y-142922550D01*
X130553845Y-142846317D01*
X130654032Y-143002012D01*
X130837827Y-143127594D01*
X131056000Y-143171775D01*
X132056000Y-143171775D01*
X132259818Y-143133424D01*
X132447012Y-143012968D01*
X132572594Y-142829173D01*
X132591462Y-142736000D01*
X133296406Y-142736000D01*
X132556112Y-143476294D01*
X132497550Y-143417733D01*
X132295402Y-143334000D01*
X131673500Y-143334000D01*
X131536000Y-143471500D01*
X131536000Y-143823225D01*
X131436000Y-143823225D01*
X131436000Y-143471500D01*
X131298500Y-143334000D01*
X130676598Y-143334000D01*
X130474450Y-143417733D01*
X130404439Y-143487743D01*
X130395402Y-143484000D01*
X129473500Y-143484000D01*
X129336000Y-143621500D01*
X129336000Y-144984000D01*
X129356000Y-144984000D01*
X129356000Y-145084000D01*
X129336000Y-145084000D01*
X129336000Y-146446500D01*
X129473500Y-146584000D01*
X130395402Y-146584000D01*
X130396513Y-146583540D01*
X130567827Y-146700594D01*
X130786000Y-146744775D01*
X132186000Y-146744775D01*
X132305665Y-146722259D01*
X132555203Y-146971797D01*
X132774189Y-147118119D01*
X132975500Y-147158162D01*
X132975500Y-147257000D01*
X133113000Y-147394500D01*
X134125500Y-147394500D01*
X134125500Y-147374500D01*
X134225500Y-147374500D01*
X134225500Y-147394500D01*
X134245500Y-147394500D01*
X134245500Y-147494500D01*
X134225500Y-147494500D01*
X134225500Y-148207000D01*
X134363000Y-148344500D01*
X134934902Y-148344500D01*
X135137050Y-148260768D01*
X135232000Y-148165817D01*
X135232000Y-153281811D01*
X135121402Y-153236000D01*
X134299500Y-153236000D01*
X134162000Y-153373500D01*
X134162000Y-154636000D01*
X134182000Y-154636000D01*
X134182000Y-154736000D01*
X134162000Y-154736000D01*
X134162000Y-154756000D01*
X134062000Y-154756000D01*
X134062000Y-154736000D01*
X131622000Y-154736000D01*
X131622000Y-154756000D01*
X131522000Y-154756000D01*
X131522000Y-154736000D01*
X130259500Y-154736000D01*
X130122000Y-154873500D01*
X130122000Y-155552000D01*
X126769000Y-155552000D01*
X126769000Y-153676598D01*
X130122000Y-153676598D01*
X130122000Y-154498500D01*
X130259500Y-154636000D01*
X131522000Y-154636000D01*
X131522000Y-153373500D01*
X131622000Y-153373500D01*
X131622000Y-154636000D01*
X134062000Y-154636000D01*
X134062000Y-153373500D01*
X133924500Y-153236000D01*
X133102598Y-153236000D01*
X132900450Y-153319732D01*
X132842000Y-153378182D01*
X132783550Y-153319732D01*
X132581402Y-153236000D01*
X131759500Y-153236000D01*
X131622000Y-153373500D01*
X131522000Y-153373500D01*
X131384500Y-153236000D01*
X130562598Y-153236000D01*
X130360450Y-153319732D01*
X130205733Y-153474450D01*
X130122000Y-153676598D01*
X126769000Y-153676598D01*
X126769000Y-147632000D01*
X132975500Y-147632000D01*
X132975500Y-147903902D01*
X133059233Y-148106050D01*
X133213950Y-148260768D01*
X133416098Y-148344500D01*
X133988000Y-148344500D01*
X134125500Y-148207000D01*
X134125500Y-147494500D01*
X133113000Y-147494500D01*
X132975500Y-147632000D01*
X126769000Y-147632000D01*
X126769000Y-146744775D01*
X127786000Y-146744775D01*
X127989818Y-146706424D01*
X128177012Y-146585968D01*
X128178357Y-146584000D01*
X129098500Y-146584000D01*
X129236000Y-146446500D01*
X129236000Y-145084000D01*
X129216000Y-145084000D01*
X129216000Y-144984000D01*
X129236000Y-144984000D01*
X129236000Y-143621500D01*
X129098500Y-143484000D01*
X128176598Y-143484000D01*
X128175487Y-143484460D01*
X128004173Y-143367406D01*
X127786000Y-143323225D01*
X126769000Y-143323225D01*
X126769000Y-142173500D01*
X128506000Y-142173500D01*
X128506000Y-142720402D01*
X128589732Y-142922550D01*
X128744450Y-143077267D01*
X128946598Y-143161000D01*
X129368500Y-143161000D01*
X129506000Y-143023500D01*
X129506000Y-142036000D01*
X128643500Y-142036000D01*
X128506000Y-142173500D01*
X126769000Y-142173500D01*
X126769000Y-141251598D01*
X128506000Y-141251598D01*
X128506000Y-141798500D01*
X128643500Y-141936000D01*
X129506000Y-141936000D01*
X129506000Y-140948500D01*
X129368500Y-140811000D01*
X128946598Y-140811000D01*
X128744450Y-140894733D01*
X128589732Y-141049450D01*
X128506000Y-141251598D01*
X126769000Y-141251598D01*
X126769000Y-138488000D01*
X132912000Y-138488000D01*
X132912000Y-138759902D01*
X132995733Y-138962050D01*
X133150450Y-139116768D01*
X133352598Y-139200500D01*
X133924500Y-139200500D01*
X134062000Y-139063000D01*
X134062000Y-138350500D01*
X133049500Y-138350500D01*
X132912000Y-138488000D01*
X126769000Y-138488000D01*
X126769000Y-137600775D01*
X127786000Y-137600775D01*
X127989818Y-137562424D01*
X128177012Y-137441968D01*
X128178357Y-137440000D01*
X129098500Y-137440000D01*
X129236000Y-137302500D01*
X129236000Y-135940000D01*
X129216000Y-135940000D01*
X129216000Y-135840000D01*
X129236000Y-135840000D01*
X129236000Y-134477500D01*
X129098500Y-134340000D01*
X128176598Y-134340000D01*
X128175487Y-134340460D01*
X128004173Y-134223406D01*
X127786000Y-134179225D01*
X126769000Y-134179225D01*
X126769000Y-132775500D01*
X128506000Y-132775500D01*
X128506000Y-133322402D01*
X128589732Y-133524550D01*
X128744450Y-133679267D01*
X128946598Y-133763000D01*
X129368500Y-133763000D01*
X129506000Y-133625500D01*
X129506000Y-132638000D01*
X128643500Y-132638000D01*
X128506000Y-132775500D01*
X126769000Y-132775500D01*
X126769000Y-131853598D01*
X128506000Y-131853598D01*
X128506000Y-132400500D01*
X128643500Y-132538000D01*
X129506000Y-132538000D01*
X129506000Y-131550500D01*
X129368500Y-131413000D01*
X128946598Y-131413000D01*
X128744450Y-131496733D01*
X128589732Y-131651450D01*
X128506000Y-131853598D01*
X126769000Y-131853598D01*
X126769000Y-130868000D01*
X132912000Y-130868000D01*
X132912000Y-131139902D01*
X132995733Y-131342050D01*
X133150450Y-131496768D01*
X133352598Y-131580500D01*
X133924500Y-131580500D01*
X134062000Y-131443000D01*
X134062000Y-130730500D01*
X133049500Y-130730500D01*
X132912000Y-130868000D01*
X126769000Y-130868000D01*
X126769000Y-129980775D01*
X127786000Y-129980775D01*
X127989818Y-129942424D01*
X128177012Y-129821968D01*
X128178357Y-129820000D01*
X129098500Y-129820000D01*
X129236000Y-129682500D01*
X129236000Y-128320000D01*
X129216000Y-128320000D01*
X129216000Y-128220000D01*
X129236000Y-128220000D01*
X129236000Y-126857500D01*
X129098500Y-126720000D01*
X128176598Y-126720000D01*
X128175487Y-126720460D01*
X128004173Y-126603406D01*
X127786000Y-126559225D01*
X126769000Y-126559225D01*
X126769000Y-126365000D01*
X126757182Y-126306642D01*
X126725066Y-126258934D01*
X125875632Y-125409500D01*
X128506000Y-125409500D01*
X128506000Y-125956402D01*
X128589732Y-126158550D01*
X128744450Y-126313267D01*
X128946598Y-126397000D01*
X129368500Y-126397000D01*
X129506000Y-126259500D01*
X129506000Y-125272000D01*
X128643500Y-125272000D01*
X128506000Y-125409500D01*
X125875632Y-125409500D01*
X124953730Y-124487598D01*
X128506000Y-124487598D01*
X128506000Y-125034500D01*
X128643500Y-125172000D01*
X129506000Y-125172000D01*
X129506000Y-124184500D01*
X129368500Y-124047000D01*
X128946598Y-124047000D01*
X128744450Y-124130733D01*
X128589732Y-124285450D01*
X128506000Y-124487598D01*
X124953730Y-124487598D01*
X124475000Y-124008868D01*
X124475000Y-122832000D01*
X127762000Y-122832000D01*
X127816519Y-122821742D01*
X127866591Y-122789521D01*
X127900182Y-122740358D01*
X127912000Y-122682000D01*
X127912000Y-120614816D01*
X128006598Y-120654000D01*
X129178500Y-120654000D01*
X129316000Y-120516500D01*
X129316000Y-117654000D01*
X129296000Y-117654000D01*
X129296000Y-117554000D01*
X129316000Y-117554000D01*
X129316000Y-114691500D01*
X129178500Y-114554000D01*
X128006598Y-114554000D01*
X127912000Y-114593184D01*
X127912000Y-112665854D01*
X128040000Y-112691775D01*
X129040000Y-112691775D01*
X129243818Y-112653424D01*
X129431012Y-112532968D01*
X129541257Y-112371619D01*
X129638032Y-112522012D01*
G36*
X131622000Y-103074000D02*
X134062000Y-103074000D01*
X134062000Y-103054000D01*
X134162000Y-103054000D01*
X134162000Y-103074000D01*
X134182000Y-103074000D01*
X134182000Y-103174000D01*
X134162000Y-103174000D01*
X134162000Y-104436500D01*
X134299500Y-104574000D01*
X135121402Y-104574000D01*
X135232000Y-104528189D01*
X135232000Y-105978497D01*
X133684273Y-107526225D01*
X133342000Y-107526225D01*
X133138182Y-107564576D01*
X132950988Y-107685032D01*
X132838816Y-107849200D01*
X132808268Y-107775450D01*
X132653550Y-107620733D01*
X132451402Y-107537000D01*
X132029500Y-107537000D01*
X131892000Y-107674500D01*
X131892000Y-108662000D01*
X131912000Y-108662000D01*
X131912000Y-108762000D01*
X131892000Y-108762000D01*
X131892000Y-109749500D01*
X132029500Y-109887000D01*
X132451402Y-109887000D01*
X132653550Y-109803267D01*
X132808268Y-109648550D01*
X132839845Y-109572317D01*
X132892000Y-109653368D01*
X132892000Y-110493497D01*
X132829498Y-110556000D01*
X131484446Y-110556000D01*
X131441968Y-110489988D01*
X131258173Y-110364406D01*
X131040000Y-110320225D01*
X130040000Y-110320225D01*
X129836182Y-110358576D01*
X129648988Y-110479032D01*
X129538743Y-110640381D01*
X129441968Y-110489988D01*
X129258173Y-110364406D01*
X129040000Y-110320225D01*
X128040000Y-110320225D01*
X127836182Y-110358576D01*
X127648988Y-110479032D01*
X127523406Y-110662827D01*
X127484288Y-110856000D01*
X125730000Y-110856000D01*
X125481256Y-110905478D01*
X125481254Y-110905479D01*
X125481255Y-110905479D01*
X125270380Y-111046381D01*
X124762381Y-111554381D01*
X124621478Y-111765255D01*
X124621478Y-111765256D01*
X124572000Y-112014000D01*
X124572000Y-112118000D01*
X118364000Y-112118000D01*
X118309481Y-112128258D01*
X118259409Y-112160479D01*
X118225818Y-112209642D01*
X118214000Y-112268000D01*
X118214000Y-115316000D01*
X118224258Y-115370519D01*
X118256479Y-115420591D01*
X118305642Y-115454182D01*
X118364000Y-115466000D01*
X118654509Y-115466000D01*
X118600000Y-115597598D01*
X118600000Y-116144500D01*
X118737500Y-116282000D01*
X119600000Y-116282000D01*
X119600000Y-116262000D01*
X119700000Y-116262000D01*
X119700000Y-116282000D01*
X119720000Y-116282000D01*
X119720000Y-116382000D01*
X119700000Y-116382000D01*
X119700000Y-118314000D01*
X119720000Y-118314000D01*
X119720000Y-118414000D01*
X119700000Y-118414000D01*
X119700000Y-120346000D01*
X119720000Y-120346000D01*
X119720000Y-120446000D01*
X119700000Y-120446000D01*
X119700000Y-120466000D01*
X119600000Y-120466000D01*
X119600000Y-120446000D01*
X118737500Y-120446000D01*
X118600000Y-120583500D01*
X118600000Y-120728761D01*
X117117000Y-119245762D01*
X117117000Y-118551500D01*
X118600000Y-118551500D01*
X118600000Y-119098402D01*
X118683732Y-119300550D01*
X118763183Y-119380000D01*
X118683732Y-119459450D01*
X118600000Y-119661598D01*
X118600000Y-120208500D01*
X118737500Y-120346000D01*
X119600000Y-120346000D01*
X119600000Y-118414000D01*
X118737500Y-118414000D01*
X118600000Y-118551500D01*
X117117000Y-118551500D01*
X117117000Y-116519500D01*
X118600000Y-116519500D01*
X118600000Y-117066402D01*
X118683732Y-117268550D01*
X118763183Y-117348000D01*
X118683732Y-117427450D01*
X118600000Y-117629598D01*
X118600000Y-118176500D01*
X118737500Y-118314000D01*
X119600000Y-118314000D01*
X119600000Y-116382000D01*
X118737500Y-116382000D01*
X118600000Y-116519500D01*
X117117000Y-116519500D01*
X117117000Y-108899500D01*
X130792000Y-108899500D01*
X130792000Y-109446402D01*
X130875732Y-109648550D01*
X131030450Y-109803267D01*
X131232598Y-109887000D01*
X131654500Y-109887000D01*
X131792000Y-109749500D01*
X131792000Y-108762000D01*
X130929500Y-108762000D01*
X130792000Y-108899500D01*
X117117000Y-108899500D01*
X117117000Y-108608000D01*
X125095000Y-108608000D01*
X125153358Y-108596182D01*
X125201066Y-108564066D01*
X125713132Y-108052000D01*
X130199191Y-108052000D01*
X130199191Y-107977598D01*
X130792000Y-107977598D01*
X130792000Y-108524500D01*
X130929500Y-108662000D01*
X131792000Y-108662000D01*
X131792000Y-107674500D01*
X131654500Y-107537000D01*
X131232598Y-107537000D01*
X131030450Y-107620733D01*
X130875732Y-107775450D01*
X130792000Y-107977598D01*
X130199191Y-107977598D01*
X130199191Y-104319756D01*
X130205733Y-104335550D01*
X130360450Y-104490268D01*
X130562598Y-104574000D01*
X131384500Y-104574000D01*
X131522000Y-104436500D01*
X131522000Y-103174000D01*
X131622000Y-103174000D01*
X131622000Y-104436500D01*
X131759500Y-104574000D01*
X132581402Y-104574000D01*
X132783550Y-104490268D01*
X132842000Y-104431818D01*
X132900450Y-104490268D01*
X133102598Y-104574000D01*
X133924500Y-104574000D01*
X134062000Y-104436500D01*
X134062000Y-103174000D01*
X131622000Y-103174000D01*
X131522000Y-103174000D01*
X131502000Y-103174000D01*
X131502000Y-103074000D01*
X131522000Y-103074000D01*
X131522000Y-103054000D01*
X131622000Y-103054000D01*
X131622000Y-103074000D01*
X131622000Y-103074000D01*
G37*
X131622000Y-103074000D02*
X134062000Y-103074000D01*
X134062000Y-103054000D01*
X134162000Y-103054000D01*
X134162000Y-103074000D01*
X134182000Y-103074000D01*
X134182000Y-103174000D01*
X134162000Y-103174000D01*
X134162000Y-104436500D01*
X134299500Y-104574000D01*
X135121402Y-104574000D01*
X135232000Y-104528189D01*
X135232000Y-105978497D01*
X133684273Y-107526225D01*
X133342000Y-107526225D01*
X133138182Y-107564576D01*
X132950988Y-107685032D01*
X132838816Y-107849200D01*
X132808268Y-107775450D01*
X132653550Y-107620733D01*
X132451402Y-107537000D01*
X132029500Y-107537000D01*
X131892000Y-107674500D01*
X131892000Y-108662000D01*
X131912000Y-108662000D01*
X131912000Y-108762000D01*
X131892000Y-108762000D01*
X131892000Y-109749500D01*
X132029500Y-109887000D01*
X132451402Y-109887000D01*
X132653550Y-109803267D01*
X132808268Y-109648550D01*
X132839845Y-109572317D01*
X132892000Y-109653368D01*
X132892000Y-110493497D01*
X132829498Y-110556000D01*
X131484446Y-110556000D01*
X131441968Y-110489988D01*
X131258173Y-110364406D01*
X131040000Y-110320225D01*
X130040000Y-110320225D01*
X129836182Y-110358576D01*
X129648988Y-110479032D01*
X129538743Y-110640381D01*
X129441968Y-110489988D01*
X129258173Y-110364406D01*
X129040000Y-110320225D01*
X128040000Y-110320225D01*
X127836182Y-110358576D01*
X127648988Y-110479032D01*
X127523406Y-110662827D01*
X127484288Y-110856000D01*
X125730000Y-110856000D01*
X125481256Y-110905478D01*
X125481254Y-110905479D01*
X125481255Y-110905479D01*
X125270380Y-111046381D01*
X124762381Y-111554381D01*
X124621478Y-111765255D01*
X124621478Y-111765256D01*
X124572000Y-112014000D01*
X124572000Y-112118000D01*
X118364000Y-112118000D01*
X118309481Y-112128258D01*
X118259409Y-112160479D01*
X118225818Y-112209642D01*
X118214000Y-112268000D01*
X118214000Y-115316000D01*
X118224258Y-115370519D01*
X118256479Y-115420591D01*
X118305642Y-115454182D01*
X118364000Y-115466000D01*
X118654509Y-115466000D01*
X118600000Y-115597598D01*
X118600000Y-116144500D01*
X118737500Y-116282000D01*
X119600000Y-116282000D01*
X119600000Y-116262000D01*
X119700000Y-116262000D01*
X119700000Y-116282000D01*
X119720000Y-116282000D01*
X119720000Y-116382000D01*
X119700000Y-116382000D01*
X119700000Y-118314000D01*
X119720000Y-118314000D01*
X119720000Y-118414000D01*
X119700000Y-118414000D01*
X119700000Y-120346000D01*
X119720000Y-120346000D01*
X119720000Y-120446000D01*
X119700000Y-120446000D01*
X119700000Y-120466000D01*
X119600000Y-120466000D01*
X119600000Y-120446000D01*
X118737500Y-120446000D01*
X118600000Y-120583500D01*
X118600000Y-120728761D01*
X117117000Y-119245762D01*
X117117000Y-118551500D01*
X118600000Y-118551500D01*
X118600000Y-119098402D01*
X118683732Y-119300550D01*
X118763183Y-119380000D01*
X118683732Y-119459450D01*
X118600000Y-119661598D01*
X118600000Y-120208500D01*
X118737500Y-120346000D01*
X119600000Y-120346000D01*
X119600000Y-118414000D01*
X118737500Y-118414000D01*
X118600000Y-118551500D01*
X117117000Y-118551500D01*
X117117000Y-116519500D01*
X118600000Y-116519500D01*
X118600000Y-117066402D01*
X118683732Y-117268550D01*
X118763183Y-117348000D01*
X118683732Y-117427450D01*
X118600000Y-117629598D01*
X118600000Y-118176500D01*
X118737500Y-118314000D01*
X119600000Y-118314000D01*
X119600000Y-116382000D01*
X118737500Y-116382000D01*
X118600000Y-116519500D01*
X117117000Y-116519500D01*
X117117000Y-108899500D01*
X130792000Y-108899500D01*
X130792000Y-109446402D01*
X130875732Y-109648550D01*
X131030450Y-109803267D01*
X131232598Y-109887000D01*
X131654500Y-109887000D01*
X131792000Y-109749500D01*
X131792000Y-108762000D01*
X130929500Y-108762000D01*
X130792000Y-108899500D01*
X117117000Y-108899500D01*
X117117000Y-108608000D01*
X125095000Y-108608000D01*
X125153358Y-108596182D01*
X125201066Y-108564066D01*
X125713132Y-108052000D01*
X130199191Y-108052000D01*
X130199191Y-107977598D01*
X130792000Y-107977598D01*
X130792000Y-108524500D01*
X130929500Y-108662000D01*
X131792000Y-108662000D01*
X131792000Y-107674500D01*
X131654500Y-107537000D01*
X131232598Y-107537000D01*
X131030450Y-107620733D01*
X130875732Y-107775450D01*
X130792000Y-107977598D01*
X130199191Y-107977598D01*
X130199191Y-104319756D01*
X130205733Y-104335550D01*
X130360450Y-104490268D01*
X130562598Y-104574000D01*
X131384500Y-104574000D01*
X131522000Y-104436500D01*
X131522000Y-103174000D01*
X131622000Y-103174000D01*
X131622000Y-104436500D01*
X131759500Y-104574000D01*
X132581402Y-104574000D01*
X132783550Y-104490268D01*
X132842000Y-104431818D01*
X132900450Y-104490268D01*
X133102598Y-104574000D01*
X133924500Y-104574000D01*
X134062000Y-104436500D01*
X134062000Y-103174000D01*
X131622000Y-103174000D01*
X131522000Y-103174000D01*
X131502000Y-103174000D01*
X131502000Y-103074000D01*
X131522000Y-103074000D01*
X131522000Y-103054000D01*
X131622000Y-103054000D01*
X131622000Y-103074000D01*
M02*
