EESchema Schematic File Version 2
LIBS:power
LIBS:device
LIBS:switches
LIBS:relays
LIBS:motors
LIBS:transistors
LIBS:conn
LIBS:linear
LIBS:regul
LIBS:74xx
LIBS:cmos4000
LIBS:adc-dac
LIBS:memory
LIBS:xilinx
LIBS:microcontrollers
LIBS:dsp
LIBS:microchip
LIBS:analog_switches
LIBS:motorola
LIBS:texas
LIBS:intel
LIBS:audio
LIBS:interface
LIBS:digital-audio
LIBS:philips
LIBS:display
LIBS:cypress
LIBS:siliconi
LIBS:opto
LIBS:atmel
LIBS:contrib
LIBS:valves
LIBS:conn_pwm
LIBS:conn-bldc
LIBS:conn-dc
LIBS:conn-pap
LIBS:drv8830
LIBS:drv10975pwpr
LIBS:ncv70624
LIBS:LIESSE_PCB_v3-cache
EELAYER 25 0
EELAYER END
$Descr A4 11693 8268
encoding utf-8
Sheet 1 1
Title "PCB_LIESSE_IOGS_v3"
Date ""
Rev "3"
Comp "Photonic Fablab"
Comment1 "Designed by Maud and Mejdi"
Comment2 ""
Comment3 ""
Comment4 ""
$EndDescr
$Comp
L Raspberry_Pi_2_3 J0
U 1 1 5A9EC085
P 2285 3715
F 0 "J0" H 2985 2465 50  0000 C CNN
F 1 "Raspberry_Pi_2_3" H 1885 4615 50  0000 C CNN
F 2 "Pin_Headers:Pin_Header_Straight_2x20_Pitch2.54mm" H 3285 4965 50  0001 C CNN
F 3 "" H 2335 3565 50  0001 C CNN
	1    2285 3715
	1    0    0    -1  
$EndComp
$Comp
L DRV8830 U3
U 1 1 5A9EC1EC
P 6740 5350
F 0 "U3" H 7105 4440 60  0000 C CNN
F 1 "DRV8830" H 6740 5350 60  0000 C CNN
F 2 "custom_HTSSOP24:MSOP-10_3x3mm_Pitch0.5mm" H 6740 5350 60  0001 C CNN
F 3 "" H 6740 5350 60  0001 C CNN
	1    6740 5350
	1    0    0    -1  
$EndComp
Text GLabel 3435 2815 2    60   Input ~ 0
SDA
Text GLabel 3435 3015 2    60   Input ~ 0
SCL
Text GLabel 6050 2015 0    60   Input ~ 0
SDA
Text GLabel 7390 5700 2    60   Input ~ 0
SDA
Text GLabel 6000 1865 0    60   Input ~ 0
SCL
Text GLabel 7905 5550 2    60   Input ~ 0
SCL
$Comp
L C C10
U 1 1 5AC3736C
P 5245 770
F 0 "C10" H 5270 870 50  0000 L CNN
F 1 "0.1uF" H 5025 685 50  0000 L CNN
F 2 "Capacitors_SMD:C_0805" H 5283 620 50  0001 C CNN
F 3 "" H 5245 770 50  0001 C CNN
	1    5245 770 
	1    0    0    -1  
$EndComp
$Comp
L C C20
U 1 1 5AC37415
P 5600 1115
F 0 "C20" H 5440 1205 50  0000 L CNN
F 1 "0.1uF" H 5630 1030 50  0000 L CNN
F 2 "Capacitors_SMD:C_0805" H 5638 965 50  0001 C CNN
F 3 "" H 5600 1115 50  0001 C CNN
	1    5600 1115
	1    0    0    -1  
$EndComp
$Comp
L C C50
U 1 1 5AC3AAB2
P 5400 1365
F 0 "C50" H 5245 1465 50  0000 L CNN
F 1 "10uF" H 5210 1280 50  0000 L CNN
F 2 "Capacitors_SMD:C_0805" H 5438 1215 50  0001 C CNN
F 3 "" H 5400 1365 50  0001 C CNN
	1    5400 1365
	1    0    0    -1  
$EndComp
$Comp
L C C30
U 1 1 5AC3AAF1
P 5400 1815
F 0 "C30" H 5425 1915 50  0000 L CNN
F 1 "1uF" H 5155 1820 50  0000 L CNN
F 2 "Capacitors_SMD:C_0805" H 5438 1665 50  0001 C CNN
F 3 "" H 5400 1815 50  0001 C CNN
	1    5400 1815
	1    0    0    -1  
$EndComp
$Comp
L C C40
U 1 1 5AC3AB43
P 5550 2165
F 0 "C40" H 5575 2265 50  0000 L CNN
F 1 "1uF" H 5575 2065 50  0000 L CNN
F 2 "Capacitors_SMD:C_0805" H 5588 2015 50  0001 C CNN
F 3 "" H 5550 2165 50  0001 C CNN
	1    5550 2165
	0    1    1    0   
$EndComp
$Comp
L L L0
U 1 1 5AC3AB80
P 5850 1365
F 0 "L0" V 5800 1365 50  0000 C CNN
F 1 "47uH" V 5905 1365 50  0000 C CNN
F 2 "Inductors_SMD:L_0805" H 5850 1365 50  0001 C CNN
F 3 "" H 5850 1365 50  0001 C CNN
	1    5850 1365
	0    -1   -1   0   
$EndComp
$Comp
L GND #PWR01
U 1 1 5AC3AE27
P 5550 1515
F 0 "#PWR01" H 5550 1265 50  0001 C CNN
F 1 "GND" H 5680 1465 50  0000 C CNN
F 2 "" H 5550 1515 50  0001 C CNN
F 3 "" H 5550 1515 50  0001 C CNN
	1    5550 1515
	1    0    0    -1  
$EndComp
$Comp
L GND #PWR02
U 1 1 5AC3B088
P 5250 2015
F 0 "#PWR02" H 5250 1765 50  0001 C CNN
F 1 "GND" H 5250 1865 50  0000 C CNN
F 2 "" H 5250 2015 50  0001 C CNN
F 3 "" H 5250 2015 50  0001 C CNN
	1    5250 2015
	1    0    0    -1  
$EndComp
$Comp
L Jack-DC J12
U 1 1 5AC3C003
P 890 855
F 0 "J12" H 890 1065 50  0000 C CNN
F 1 "Jack-DC" H 890 680 50  0000 C CNN
F 2 "Pin_Headers:Pin_Header_Straight_1x03_Pitch2.54mm" H 940 815 50  0001 C CNN
F 3 "" H 940 815 50  0001 C CNN
	1    890  855 
	1    0    0    -1  
$EndComp
Text GLabel 1450 855  2    60   Input ~ 0
Vcc
Text GLabel 1390 705  2    60   Input ~ 0
PGnd1
$Comp
L Jack-DC J5
U 1 1 5AC3C48F
P 935 1435
F 0 "J5" H 935 1645 50  0000 C CNN
F 1 "Jack-DC" H 935 1260 50  0000 C CNN
F 2 "Pin_Headers:Pin_Header_Straight_1x03_Pitch2.54mm" H 985 1395 50  0001 C CNN
F 3 "" H 985 1395 50  0001 C CNN
	1    935  1435
	1    0    0    -1  
$EndComp
Text GLabel 1485 1285 2    60   Input ~ 0
PGnd2
Text GLabel 1530 1435 2    60   Input ~ 0
Vdd
$Comp
L C C60
U 1 1 5AC3C95F
P 8050 715
F 0 "C60" H 8075 815 50  0000 L CNN
F 1 "10uF" H 8075 615 50  0000 L CNN
F 2 "Capacitors_SMD:C_0805" H 8088 565 50  0001 C CNN
F 3 "" H 8050 715 50  0001 C CNN
	1    8050 715 
	0    -1   -1   0   
$EndComp
$Comp
L GND #PWR03
U 1 1 5AC3C9E2
P 8350 615
F 0 "#PWR03" H 8350 365 50  0001 C CNN
F 1 "GND" H 8350 465 50  0000 C CNN
F 2 "" H 8350 615 50  0001 C CNN
F 3 "" H 8350 615 50  0001 C CNN
	1    8350 615 
	1    0    0    -1  
$EndComp
Text GLabel 7505 1865 2    60   Input ~ 0
PGnd1
Text GLabel 5195 620  0    60   Input ~ 0
Vcc
$Comp
L C C3
U 1 1 5AC4870B
P 5800 6350
F 0 "C3" H 5825 6450 50  0000 L CNN
F 1 "10uF" H 5825 6250 50  0000 L CNN
F 2 "Capacitors_SMD:C_0805" H 5838 6200 50  0001 C CNN
F 3 "" H 5800 6350 50  0001 C CNN
	1    5800 6350
	1    0    0    -1  
$EndComp
Text GLabel 5030 6000 0    60   Input ~ 0
Vdd
Text GLabel 5150 6150 0    60   Input ~ 0
PGnd2
$Comp
L R R3
U 1 1 5AC492FA
P 5690 5700
F 0 "R3" V 5770 5700 50  0000 C CNN
F 1 "0.2" V 5690 5700 50  0000 C CNN
F 2 "Resistors_SMD:R_0805" V 5620 5700 50  0001 C CNN
F 3 "" H 5690 5700 50  0001 C CNN
	1    5690 5700
	0    1    1    0   
$EndComp
Text GLabel 1875 2315 0    60   Input ~ 0
Vdd
Text GLabel 1810 5530 0    60   Input ~ 0
PGnd2
Text GLabel 10700 4570 2    60   Input ~ 0
PWM0
Text GLabel 10690 4440 2    60   Input ~ 0
GPIO0
Text GLabel 10700 4265 2    60   Input ~ 0
PWM1
Text GLabel 1285 3215 0    60   Input ~ 0
PWM0
Text GLabel 1285 3015 0    60   Input ~ 0
GPIO0
Text GLabel 3335 4215 2    60   Input ~ 0
PWM1
Text GLabel 3260 3310 2    60   Input ~ 0
GPIO1
$Comp
L DRV10975PWPR U0
U 1 1 5A9EC22D
P 6700 815
F 0 "U0" H 6980 -565 60  0000 C CNN
F 1 "DRV10975PWPR" H 6700 815 60  0000 C CNN
F 2 "custom_HTSSOP24:HTSSOP-24_4.4x7.8mm_Pitch0.65mm" H 6700 815 60  0001 C CNN
F 3 "" H 6700 815 60  0001 C CNN
	1    6700 815 
	1    0    0    -1  
$EndComp
NoConn ~ 3185 3915
NoConn ~ 3185 3815
NoConn ~ 6150 2115
NoConn ~ 3185 3015
NoConn ~ 3185 3215
NoConn ~ 3185 3515
NoConn ~ 3185 3615
NoConn ~ 3185 3715
NoConn ~ 1385 3315
NoConn ~ 1385 3415
NoConn ~ 1385 3715
NoConn ~ 1385 3815
NoConn ~ 1385 3915
NoConn ~ 1385 4015
NoConn ~ 1385 4115
NoConn ~ 1385 4415
NoConn ~ 1385 4515
NoConn ~ 3185 4515
NoConn ~ 2385 2415
NoConn ~ 2485 2415
Text GLabel 1815 5370 0    60   Input ~ 0
PGnd1
$Comp
L GND #PWR04
U 1 1 5AD4397E
P 1550 5045
F 0 "#PWR04" H 1550 4795 50  0001 C CNN
F 1 "GND" H 1550 4895 50  0000 C CNN
F 2 "" H 1550 5045 50  0001 C CNN
F 3 "" H 1550 5045 50  0001 C CNN
	1    1550 5045
	1    0    0    -1  
$EndComp
NoConn ~ 1385 3015
NoConn ~ 3185 4115
NoConn ~ 1385 3615
NoConn ~ 3185 4415
Text GLabel 7305 2975 2    60   Input ~ 0
SDA
Text GLabel 7845 2830 2    60   Input ~ 0
SCL
$Comp
L C C1
U 1 1 5AE22C43
P 5715 3625
F 0 "C1" H 5740 3725 50  0000 L CNN
F 1 "10uF" H 5740 3525 50  0000 L CNN
F 2 "Capacitors_SMD:C_0805" H 5753 3475 50  0001 C CNN
F 3 "" H 5715 3625 50  0001 C CNN
	1    5715 3625
	1    0    0    -1  
$EndComp
Text GLabel 4945 3275 0    60   Input ~ 0
Vdd
Text GLabel 5065 3425 0    60   Input ~ 0
PGnd2
$Comp
L R R1
U 1 1 5AE22C4B
P 5605 2975
F 0 "R1" V 5685 2975 50  0000 C CNN
F 1 "0.4" V 5605 2975 50  0000 C CNN
F 2 "Resistors_SMD:R_0805" V 5535 2975 50  0001 C CNN
F 3 "" H 5605 2975 50  0001 C CNN
	1    5605 2975
	0    1    1    0   
$EndComp
$Comp
L DRV8830 U2
U 1 1 5AE237C4
P 6690 3895
F 0 "U2" H 7055 2985 60  0000 C CNN
F 1 "DRV8830" H 6690 3895 60  0000 C CNN
F 2 "custom_HTSSOP24:MSOP-10_3x3mm_Pitch0.5mm" H 6690 3895 60  0001 C CNN
F 3 "" H 6690 3895 60  0001 C CNN
	1    6690 3895
	1    0    0    -1  
$EndComp
Text GLabel 7340 4245 2    60   Input ~ 0
SDA
Text GLabel 8015 4080 2    60   Input ~ 0
SCL
$Comp
L C C2
U 1 1 5AE237D2
P 5750 4895
F 0 "C2" H 5775 4995 50  0000 L CNN
F 1 "10uF" H 5775 4795 50  0000 L CNN
F 2 "Capacitors_SMD:C_0805" H 5788 4745 50  0001 C CNN
F 3 "" H 5750 4895 50  0001 C CNN
	1    5750 4895
	1    0    0    -1  
$EndComp
Text GLabel 4980 4545 0    60   Input ~ 0
Vdd
Text GLabel 5100 4695 0    60   Input ~ 0
PGnd2
$Comp
L R R2
U 1 1 5AE237DA
P 5640 4245
F 0 "R2" V 5720 4245 50  0000 C CNN
F 1 "0.4" V 5640 4245 50  0000 C CNN
F 2 "Resistors_SMD:R_0805" V 5570 4245 50  0001 C CNN
F 3 "" H 5640 4245 50  0001 C CNN
	1    5640 4245
	0    1    1    0   
$EndComp
Text Label 7380 1665 0    60   ~ 0
U
Text Label 7380 1465 0    60   ~ 0
V
Text Label 7370 1265 0    60   ~ 0
W
Text Label 7835 2550 0    60   ~ 0
1+
Text Label 7790 3190 0    60   ~ 0
1-
Text Label 7990 3820 0    60   ~ 0
2+
Text Label 7840 4460 0    60   ~ 0
2-
Text Label 8025 5275 0    60   ~ 0
3+
Text Label 7930 5915 0    60   ~ 0
3-
NoConn ~ 10065 4360
NoConn ~ 10565 4360
NoConn ~ 10065 4060
NoConn ~ 10565 4060
Text GLabel 10690 4140 2    60   Input ~ 0
GPIO1
NoConn ~ 10065 3760
NoConn ~ 10565 3760
$Comp
L GND #PWR05
U 1 1 5AE2628D
P 7355 3280
F 0 "#PWR05" H 7355 3030 50  0001 C CNN
F 1 "GND" H 7355 3130 50  0000 C CNN
F 2 "" H 7355 3280 50  0001 C CNN
F 3 "" H 7355 3280 50  0001 C CNN
	1    7355 3280
	1    0    0    -1  
$EndComp
$Comp
L DRV8830 U1
U 1 1 5AE22C35
P 6655 2625
F 0 "U1" H 7020 1715 60  0000 C CNN
F 1 "DRV8830" H 6655 2625 60  0000 C CNN
F 2 "custom_HTSSOP24:MSOP-10_3x3mm_Pitch0.5mm" H 6655 2625 60  0001 C CNN
F 3 "" H 6655 2625 60  0001 C CNN
	1    6655 2625
	1    0    0    -1  
$EndComp
$Comp
L GND #PWR06
U 1 1 5AE2680F
P 7435 4420
F 0 "#PWR06" H 7435 4170 50  0001 C CNN
F 1 "GND" H 7435 4270 50  0000 C CNN
F 2 "" H 7435 4420 50  0001 C CNN
F 3 "" H 7435 4420 50  0001 C CNN
	1    7435 4420
	1    0    0    -1  
$EndComp
NoConn ~ 7240 5850
NoConn ~ 7240 6000
NoConn ~ 7155 3125
NoConn ~ 7190 4545
NoConn ~ 7100 2115
NoConn ~ 10565 3260
NoConn ~ 10065 3260
$Comp
L Conn_02x20_Odd_Even J1
U 1 1 5AE263A9
P 10265 3560
F 0 "J1" H 10315 4560 50  0000 C CNN
F 1 "Conn_02x20_Odd_Even" H 10315 2460 50  0000 C CNN
F 2 "Pin_Headers:Pin_Header_Straight_2x20_Pitch2.54mm_SMD" H 10265 3560 50  0001 C CNN
F 3 "" H 10265 3560 50  0001 C CNN
	1    10265 3560
	1    0    0    -1  
$EndComp
NoConn ~ 7155 3425
NoConn ~ 7190 4695
NoConn ~ 7240 6150
Text GLabel 10820 3165 2    60   Input ~ 0
Vdd
$Comp
L R R22
U 1 1 5AE2C452
P 7660 4095
F 0 "R22" V 7740 4095 50  0000 C CNN
F 1 "0" V 7660 4095 50  0000 C CNN
F 2 "Resistors_SMD:R_0805" V 7590 4095 50  0001 C CNN
F 3 "" H 7660 4095 50  0001 C CNN
	1    7660 4095
	0    1    1    0   
$EndComp
Wire Wire Line
	3185 2815 3435 2815
Wire Wire Line
	3185 2915 3285 2915
Wire Wire Line
	3285 2915 3285 3015
Wire Wire Line
	3285 3015 3435 3015
Wire Wire Line
	6000 1865 6100 1865
Wire Wire Line
	6100 1865 6100 1915
Wire Wire Line
	6100 1915 6150 1915
Wire Wire Line
	6050 2015 6150 2015
Wire Wire Line
	7240 5550 7905 5550
Wire Wire Line
	7240 5700 7390 5700
Wire Wire Line
	7100 1215 7100 1315
Wire Wire Line
	7100 1265 9980 1265
Connection ~ 7100 1265
Wire Wire Line
	7100 1415 7100 1515
Wire Wire Line
	7100 1465 9865 1465
Connection ~ 7100 1465
Wire Wire Line
	7100 1615 7100 1715
Wire Wire Line
	7100 1665 9655 1665
Connection ~ 7100 1665
Wire Wire Line
	6290 5850 6090 5850
Wire Wire Line
	6090 5850 6090 6360
Wire Wire Line
	5600 1265 6150 1265
Wire Wire Line
	6150 1265 6150 1215
Wire Wire Line
	6150 1115 5850 1115
Wire Wire Line
	5850 1115 5850 965 
Wire Wire Line
	5850 965  5600 965 
Wire Wire Line
	6150 1315 6000 1315
Wire Wire Line
	6000 1315 6000 1365
Wire Wire Line
	5550 1365 5700 1365
Wire Wire Line
	5550 1365 5550 1215
Wire Wire Line
	5550 1215 5400 1215
Wire Wire Line
	5400 1515 5550 1515
Wire Wire Line
	6150 1515 5600 1515
Wire Wire Line
	5600 1515 5600 1365
Connection ~ 5600 1365
Wire Wire Line
	5550 1515 5550 1465
Wire Wire Line
	5550 1465 6150 1465
Wire Wire Line
	6150 1465 6150 1415
Wire Wire Line
	6150 1615 5400 1615
Wire Wire Line
	5400 1615 5400 1665
Wire Wire Line
	5400 1965 5250 1965
Wire Wire Line
	5250 1965 5250 2015
Wire Wire Line
	6150 1715 5600 1715
Wire Wire Line
	5600 1715 5600 2015
Wire Wire Line
	5600 2015 5100 2015
Wire Wire Line
	7100 1815 7100 1915
Connection ~ 7100 1865
Wire Wire Line
	1190 855  1450 855 
Wire Wire Line
	1190 755  1190 705 
Wire Wire Line
	1190 705  1390 705 
Wire Wire Line
	1235 1335 1235 1285
Wire Wire Line
	1235 1285 1485 1285
Wire Wire Line
	7100 1015 7550 1015
Wire Wire Line
	7550 1015 7550 715 
Wire Wire Line
	7550 715  7900 715 
Wire Wire Line
	8200 715  8200 615 
Wire Wire Line
	8200 615  8350 615 
Wire Wire Line
	7100 1115 7200 1115
Wire Wire Line
	7200 1115 7200 1015
Connection ~ 7200 1015
Wire Wire Line
	7100 1865 7505 1865
Wire Wire Line
	5030 6000 6290 6000
Wire Wire Line
	5800 6000 5800 6200
Connection ~ 5800 6000
Wire Wire Line
	5150 6150 6290 6150
Wire Wire Line
	6290 5700 5840 5700
Wire Wire Line
	5540 5700 5340 5700
Wire Wire Line
	1875 2315 2185 2315
Wire Wire Line
	2185 2315 2185 2415
Wire Wire Line
	2585 5115 2585 5015
Wire Wire Line
	1735 5115 2585 5115
Wire Wire Line
	1885 5015 1885 5115
Connection ~ 1885 5115
Wire Wire Line
	1985 5015 1985 5115
Connection ~ 1985 5115
Wire Wire Line
	2085 5015 2085 5115
Connection ~ 2085 5115
Wire Wire Line
	2185 5015 2185 5115
Connection ~ 2185 5115
Wire Wire Line
	2285 5015 2285 5115
Connection ~ 2285 5115
Wire Wire Line
	2385 5015 2385 5115
Connection ~ 2385 5115
Wire Wire Line
	2485 5015 2485 5115
Connection ~ 2485 5115
Wire Wire Line
	10565 4570 10700 4570
Wire Wire Line
	1285 3215 1385 3215
Wire Wire Line
	3185 4215 3335 4215
Wire Wire Line
	5400 2165 5100 2165
Connection ~ 5250 2015
Wire Wire Line
	5700 1765 6150 1765
Wire Wire Line
	6150 1765 6150 1815
Wire Wire Line
	1240 705  1240 955 
Wire Wire Line
	1240 955  1190 955 
Connection ~ 1240 705 
Wire Wire Line
	1285 1285 1285 1535
Wire Wire Line
	1285 1535 1235 1535
Connection ~ 1285 1285
Wire Wire Line
	1530 1435 1235 1435
Wire Wire Line
	2085 2415 2085 2315
Connection ~ 2085 2315
Wire Wire Line
	1550 5045 1735 5045
Wire Wire Line
	1735 5045 1735 5115
Wire Wire Line
	1815 5370 1935 5370
Wire Wire Line
	1935 5370 1935 5115
Connection ~ 1935 5115
Wire Wire Line
	1810 5530 2035 5530
Wire Wire Line
	2035 5530 2035 5115
Connection ~ 2035 5115
Wire Wire Line
	1285 3015 1320 3015
Wire Wire Line
	1320 3015 1320 3115
Wire Wire Line
	1320 3115 1385 3115
Wire Wire Line
	3185 3315 3225 3315
Wire Wire Line
	3225 3315 3225 3310
Wire Wire Line
	3225 3310 3260 3310
Wire Wire Line
	5100 2165 5100 2015
Wire Wire Line
	9190 5915 7820 5915
Wire Wire Line
	7820 5915 7820 6360
Wire Wire Line
	7820 6360 6090 6360
Wire Wire Line
	5340 5700 5340 6150
Connection ~ 5340 6150
Wire Wire Line
	6290 5550 6205 5550
Wire Wire Line
	6205 5550 6205 5275
Wire Wire Line
	6205 5275 8980 5275
Wire Wire Line
	5800 6500 5420 6500
Wire Wire Line
	5420 6500 5420 6150
Connection ~ 5420 6150
Wire Wire Line
	7155 2825 7490 2825
Wire Wire Line
	7155 2975 7305 2975
Wire Wire Line
	6205 3125 6005 3125
Wire Wire Line
	6005 3125 6005 3625
Wire Wire Line
	4945 3275 6205 3275
Wire Wire Line
	5715 3275 5715 3475
Connection ~ 5715 3275
Wire Wire Line
	6205 2975 5755 2975
Wire Wire Line
	5455 2975 5255 2975
Wire Wire Line
	7735 3190 9475 3190
Wire Wire Line
	7735 3190 7735 3625
Wire Wire Line
	7735 3625 6005 3625
Wire Wire Line
	5255 2975 5255 3425
Wire Wire Line
	6205 2825 6120 2825
Wire Wire Line
	6120 2825 6120 2550
Wire Wire Line
	6120 2550 8705 2550
Wire Wire Line
	5715 3775 5335 3775
Wire Wire Line
	5335 3775 5335 3425
Wire Wire Line
	5700 1765 5700 2165
Wire Wire Line
	7190 4095 7510 4095
Wire Wire Line
	7190 4245 7340 4245
Wire Wire Line
	6240 4395 6040 4395
Wire Wire Line
	6040 4395 6040 4885
Wire Wire Line
	4980 4545 6240 4545
Wire Wire Line
	5750 4545 5750 4745
Connection ~ 5750 4545
Wire Wire Line
	5100 4695 6240 4695
Wire Wire Line
	6240 4245 5790 4245
Wire Wire Line
	5490 4245 5290 4245
Wire Wire Line
	8545 4460 7770 4460
Wire Wire Line
	7770 4460 7770 4885
Wire Wire Line
	7770 4885 6040 4885
Wire Wire Line
	5290 4245 5290 4695
Connection ~ 5290 4695
Wire Wire Line
	6240 4095 6155 4095
Wire Wire Line
	6155 4095 6155 3820
Wire Wire Line
	6155 3820 8440 3820
Wire Wire Line
	5750 5045 5370 5045
Wire Wire Line
	5370 5045 5370 4695
Connection ~ 5370 4695
Wire Wire Line
	5245 920  6150 920 
Wire Wire Line
	6150 920  6150 1015
Wire Wire Line
	5195 620  7350 620 
Wire Wire Line
	7350 620  7350 1015
Connection ~ 7350 1015
Connection ~ 5245 620 
Wire Wire Line
	10065 2660 10065 2680
Wire Wire Line
	10065 2680 10565 2680
Wire Wire Line
	10565 2680 10565 2660
Wire Wire Line
	10065 2760 10065 2780
Wire Wire Line
	10065 2780 10565 2780
Wire Wire Line
	10565 2780 10565 2760
Wire Wire Line
	10565 2860 10565 2880
Wire Wire Line
	10565 2880 10065 2880
Wire Wire Line
	10065 2880 10065 2860
Wire Wire Line
	10065 2960 10065 2980
Wire Wire Line
	10065 2980 10565 2980
Wire Wire Line
	10565 2980 10565 2960
Wire Wire Line
	7325 1865 7325 1740
Connection ~ 7325 1865
Wire Wire Line
	9980 1265 9980 2670
Wire Wire Line
	9980 2670 10065 2670
Connection ~ 10065 2670
Wire Wire Line
	10065 2770 9865 2770
Wire Wire Line
	9865 2770 9865 1465
Connection ~ 10065 2770
Wire Wire Line
	9655 1665 9655 2870
Wire Wire Line
	9655 2870 10065 2870
Connection ~ 10065 2870
Wire Wire Line
	10065 2970 9285 2970
Wire Wire Line
	9285 2970 9285 1740
Wire Wire Line
	9285 1740 7325 1740
Connection ~ 10065 2970
Wire Wire Line
	10065 4560 10065 4580
Wire Wire Line
	10065 4580 10565 4580
Wire Wire Line
	10565 4580 10565 4560
Wire Wire Line
	10565 4460 10565 4485
Wire Wire Line
	10565 4485 10065 4485
Wire Wire Line
	10065 4485 10065 4460
Wire Wire Line
	10065 4260 10065 4275
Wire Wire Line
	10065 4275 10565 4275
Wire Wire Line
	10565 4275 10565 4260
Wire Wire Line
	10065 4160 10065 4175
Wire Wire Line
	10065 4175 10565 4175
Wire Wire Line
	10565 4175 10565 4160
Connection ~ 10565 4570
Wire Wire Line
	10690 4440 10620 4440
Wire Wire Line
	10620 4440 10620 4475
Wire Wire Line
	10620 4475 10565 4475
Connection ~ 10565 4475
Wire Wire Line
	10700 4265 10565 4265
Connection ~ 10565 4265
Wire Wire Line
	10690 4140 10625 4140
Wire Wire Line
	10625 4140 10625 4170
Wire Wire Line
	10625 4170 10565 4170
Connection ~ 10565 4170
Wire Wire Line
	10065 3860 10065 3875
Wire Wire Line
	10065 3875 10565 3875
Wire Wire Line
	10565 3875 10565 3860
Wire Wire Line
	10565 3960 10565 3975
Wire Wire Line
	10565 3975 10065 3975
Wire Wire Line
	10065 3975 10065 3960
Wire Wire Line
	10565 3375 10565 3360
Wire Wire Line
	9475 3375 10565 3375
Wire Wire Line
	10065 3375 10065 3360
Wire Wire Line
	10065 3460 10065 3475
Wire Wire Line
	9790 3475 10565 3475
Wire Wire Line
	10565 3475 10565 3460
Wire Wire Line
	10565 3560 10565 3575
Wire Wire Line
	10565 3575 10065 3575
Wire Wire Line
	10065 3575 10065 3560
Wire Wire Line
	9190 3865 9190 5915
Wire Wire Line
	9475 3190 9475 3375
Wire Wire Line
	9190 3865 10065 3865
Connection ~ 10065 3865
Wire Wire Line
	8980 3970 10065 3970
Connection ~ 10065 3970
Wire Wire Line
	5065 3425 6205 3425
Connection ~ 5335 3425
Connection ~ 5255 3425
Wire Wire Line
	7155 3275 7355 3275
Wire Wire Line
	7355 3275 7355 3280
Wire Wire Line
	7190 4395 7435 4395
Wire Wire Line
	7435 4395 7435 4420
Wire Wire Line
	7100 2015 9175 2015
Wire Wire Line
	9175 2015 9175 3005
Wire Wire Line
	9175 3005 9935 3005
Wire Wire Line
	10065 3660 10065 3675
Wire Wire Line
	8440 3675 10565 3675
Wire Wire Line
	10565 3675 10565 3660
Connection ~ 10065 3675
Wire Wire Line
	10065 3570 8545 3570
Connection ~ 10065 3570
Wire Wire Line
	8545 3570 8545 4460
Connection ~ 10065 3475
Connection ~ 10065 3375
Wire Wire Line
	10065 3060 10065 3075
Wire Wire Line
	10065 3075 10565 3075
Wire Wire Line
	10565 3075 10565 3060
Wire Wire Line
	10065 3160 10065 3170
Wire Wire Line
	10065 3170 10565 3170
Wire Wire Line
	10565 3170 10565 3160
Wire Wire Line
	10065 3070 9935 3070
Wire Wire Line
	9935 3070 9935 3005
Connection ~ 10065 3070
Wire Wire Line
	10820 3165 10565 3165
Connection ~ 10565 3165
Wire Wire Line
	8440 3820 8440 3675
Wire Wire Line
	8015 4080 7810 4080
Wire Wire Line
	7810 4080 7810 4095
Wire Wire Line
	8980 5275 8980 3970
$Comp
L R R11
U 1 1 5AE2DA9C
P 7640 2830
F 0 "R11" V 7720 2830 50  0000 C CNN
F 1 "0" V 7640 2830 50  0000 C CNN
F 2 "Resistors_SMD:R_0805" V 7570 2830 50  0001 C CNN
F 3 "" H 7640 2830 50  0001 C CNN
	1    7640 2830
	0    1    1    0   
$EndComp
Wire Wire Line
	8705 2550 8705 3125
Wire Wire Line
	8705 3125 9790 3125
Wire Wire Line
	9790 3125 9790 3475
Wire Wire Line
	7490 2825 7490 2830
Wire Wire Line
	7790 2830 7845 2830
$Comp
L R R9
U 1 1 5AE30016
P 940 3700
F 0 "R9" V 1020 3700 50  0000 C CNN
F 1 "100" V 940 3700 50  0000 C CNN
F 2 "Resistors_SMD:R_0805" V 870 3700 50  0001 C CNN
F 3 "" H 940 3700 50  0001 C CNN
	1    940  3700
	1    0    0    -1  
$EndComp
$Comp
L LED D9
U 1 1 5AE3010B
P 940 4055
F 0 "D9" H 940 4155 50  0000 C CNN
F 1 "LED" H 940 3955 50  0000 C CNN
F 2 "LEDs:LED_0805" H 940 4055 50  0001 C CNN
F 3 "" H 940 4055 50  0001 C CNN
	1    940  4055
	0    -1   -1   0   
$EndComp
Wire Wire Line
	940  3850 940  3905
$Comp
L GND #PWR07
U 1 1 5AE30935
P 940 4255
F 0 "#PWR07" H 940 4005 50  0001 C CNN
F 1 "GND" H 940 4105 50  0000 C CNN
F 2 "" H 940 4255 50  0001 C CNN
F 3 "" H 940 4255 50  0001 C CNN
	1    940  4255
	1    0    0    -1  
$EndComp
Wire Wire Line
	940  4205 940  4255
Wire Wire Line
	1385 3515 940  3515
Wire Wire Line
	940  3515 940  3550
$EndSCHEMATC
