EESchema Schematic File Version 2
LIBS:Carte elec1-rescue
LIBS:power
LIBS:device
LIBS:switches
LIBS:relays
LIBS:motors
LIBS:transistors
LIBS:conn
LIBS:linear
LIBS:regul
LIBS:74xx
LIBS:cmos4000
LIBS:adc-dac
LIBS:memory
LIBS:xilinx
LIBS:microcontrollers
LIBS:dsp
LIBS:microchip
LIBS:analog_switches
LIBS:motorola
LIBS:texas
LIBS:intel
LIBS:audio
LIBS:interface
LIBS:digital-audio
LIBS:philips
LIBS:display
LIBS:cypress
LIBS:siliconi
LIBS:opto
LIBS:atmel
LIBS:contrib
LIBS:valves
LIBS:conn-bldc
LIBS:conn-dc
LIBS:conn-pap
LIBS:drv8830
LIBS:drv10975pwpr
LIBS:ncv70624
LIBS:conn_pwm
LIBS:Carte elec1-cache
EELAYER 25 0
EELAYER END
$Descr A4 11693 8268
encoding utf-8
Sheet 1 1
Title ""
Date ""
Rev ""
Comp ""
Comment1 ""
Comment2 ""
Comment3 ""
Comment4 ""
$EndDescr
$Comp
L Raspberry_Pi_2_3 J0
U 1 1 5A9EC085
P 3050 3100
F 0 "J0" H 3750 1850 50  0000 C CNN
F 1 "Raspberry_Pi_2_3" H 2650 4000 50  0000 C CNN
F 2 "Pin_Headers:Pin_Header_Straight_2x20_Pitch2.54mm" H 4050 4350 50  0001 C CNN
F 3 "" H 3100 2950 50  0001 C CNN
	1    3050 3100
	1    0    0    -1  
$EndComp
$Comp
L DRV8830 U3
U 1 1 5A9EC1EC
P 5900 5200
F 0 "U3" H 6265 4290 60  0000 C CNN
F 1 "DRV8830" H 5900 5200 60  0000 C CNN
F 2 "Housings_SSOP:MSOP-10_3x3mm_Pitch0.5mm" H 5900 5200 60  0001 C CNN
F 3 "" H 5900 5200 60  0001 C CNN
	1    5900 5200
	1    0    0    -1  
$EndComp
$Comp
L NCV70624 U2
U 1 1 5A9EC27E
P 5650 3700
F 0 "U2" H 6070 2590 60  0000 C CNN
F 1 "NCV70624" H 5855 3830 60  0000 C CNN
F 2 "Housings_SOIC:SOIC-20W_7.5x12.8mm_Pitch1.27mm" H 5850 3750 60  0001 C CNN
F 3 "" H 5850 3750 60  0001 C CNN
	1    5650 3700
	1    0    0    -1  
$EndComp
$Comp
L CONN-BLDC J1
U 1 1 5A9EC2CB
P 7700 2000
F 0 "J1" H 7190 1495 60  0000 C CNN
F 1 "CONN-BLDC" H 7700 2000 60  0000 C CNN
F 2 "Pin_Headers:Pin_Header_Straight_1x04_Pitch2.54mm" H 7700 2000 60  0001 C CNN
F 3 "" H 7700 2000 60  0001 C CNN
	1    7700 2000
	1    0    0    -1  
$EndComp
$Comp
L CONN-DC J3
U 1 1 5A9EC304
P 7550 5500
F 0 "J3" H 7205 5095 60  0000 C CNN
F 1 "CONN-DC" H 7550 5500 60  0000 C CNN
F 2 "Pin_Headers:Pin_Header_Straight_1x02_Pitch2.54mm" H 7550 5500 60  0001 C CNN
F 3 "" H 7550 5500 60  0001 C CNN
	1    7550 5500
	1    0    0    -1  
$EndComp
$Comp
L CONN-PaP J2
U 1 1 5A9EC361
P 7450 3900
F 0 "J2" H 7000 3880 60  0000 C CNN
F 1 "CONN-PaP" H 7450 3900 60  0000 C CNN
F 2 "Pin_Headers:Pin_Header_Straight_1x04_Pitch2.54mm" H 7450 3900 60  0001 C CNN
F 3 "" H 7450 3900 60  0001 C CNN
	1    7450 3900
	1    0    0    -1  
$EndComp
Text GLabel 4200 2200 2    60   Input ~ 0
SDA
Text GLabel 4200 2400 2    60   Input ~ 0
SCL
Text GLabel 5300 2850 0    60   Input ~ 0
SDA
Text GLabel 5295 3515 0    60   Input ~ 0
SDA
Text GLabel 6550 5550 2    60   BiDi ~ 0
SDA
Text GLabel 5250 2700 0    60   Input ~ 0
SCL
Text GLabel 4920 3760 0    60   Input ~ 0
SCL
Text GLabel 6550 5400 2    60   BiDi ~ 0
SCL
$Comp
L C C1
U 1 1 5AC3736C
P 4700 1500
F 0 "C1" H 4725 1600 50  0000 L CNN
F 1 "0.1uF" H 4725 1400 50  0000 L CNN
F 2 "Capacitors_SMD:C_0805" H 4738 1350 50  0001 C CNN
F 3 "" H 4700 1500 50  0001 C CNN
	1    4700 1500
	1    0    0    -1  
$EndComp
$Comp
L C C2
U 1 1 5AC37415
P 4850 1950
F 0 "C2" H 4875 2050 50  0000 L CNN
F 1 "0.1uF" H 4875 1850 50  0000 L CNN
F 2 "Capacitors_SMD:C_0805" H 4888 1800 50  0001 C CNN
F 3 "" H 4850 1950 50  0001 C CNN
	1    4850 1950
	1    0    0    -1  
$EndComp
$Comp
L C C4
U 1 1 5AC3AAB2
P 4650 2200
F 0 "C4" H 4675 2300 50  0000 L CNN
F 1 "10uF" H 4675 2100 50  0000 L CNN
F 2 "Capacitors_SMD:C_0805" H 4688 2050 50  0001 C CNN
F 3 "" H 4650 2200 50  0001 C CNN
	1    4650 2200
	1    0    0    -1  
$EndComp
$Comp
L C C5
U 1 1 5AC3AAF1
P 4650 2650
F 0 "C5" H 4675 2750 50  0000 L CNN
F 1 "1uF" H 4675 2550 50  0000 L CNN
F 2 "Capacitors_SMD:C_0805" H 4688 2500 50  0001 C CNN
F 3 "" H 4650 2650 50  0001 C CNN
	1    4650 2650
	1    0    0    -1  
$EndComp
$Comp
L C C6
U 1 1 5AC3AB43
P 4650 3150
F 0 "C6" H 4675 3250 50  0000 L CNN
F 1 "1uF" H 4675 3050 50  0000 L CNN
F 2 "Capacitors_SMD:C_0805" H 4688 3000 50  0001 C CNN
F 3 "" H 4650 3150 50  0001 C CNN
	1    4650 3150
	1    0    0    -1  
$EndComp
$Comp
L L L1
U 1 1 5AC3AB80
P 5100 2200
F 0 "L1" V 5050 2200 50  0000 C CNN
F 1 "47uH" V 5175 2200 50  0000 C CNN
F 2 "Inductors_SMD:L_0805" H 5100 2200 50  0001 C CNN
F 3 "" H 5100 2200 50  0001 C CNN
	1    5100 2200
	0    -1   -1   0   
$EndComp
$Comp
L GND #PWR01
U 1 1 5AC3AE27
P 4800 2350
F 0 "#PWR01" H 4800 2100 50  0001 C CNN
F 1 "GND" H 4930 2300 50  0000 C CNN
F 2 "" H 4800 2350 50  0001 C CNN
F 3 "" H 4800 2350 50  0001 C CNN
	1    4800 2350
	1    0    0    -1  
$EndComp
$Comp
L GND #PWR02
U 1 1 5AC3B088
P 4500 2850
F 0 "#PWR02" H 4500 2600 50  0001 C CNN
F 1 "GND" H 4500 2700 50  0000 C CNN
F 2 "" H 4500 2850 50  0001 C CNN
F 3 "" H 4500 2850 50  0001 C CNN
	1    4500 2850
	1    0    0    -1  
$EndComp
$Comp
L Jack-DC J12
U 1 1 5AC3C003
P 1450 950
F 0 "J12" H 1450 1160 50  0000 C CNN
F 1 "Jack-DC" H 1450 775 50  0000 C CNN
F 2 "Pin_Headers:Pin_Header_Straight_1x03_Pitch2.54mm" H 1500 910 50  0001 C CNN
F 3 "" H 1500 910 50  0001 C CNN
	1    1450 950 
	1    0    0    -1  
$EndComp
Text GLabel 2010 950  2    60   Input ~ 0
Vcc
Text GLabel 1950 800  2    60   Input ~ 0
PGnd1
$Comp
L Jack-DC J5
U 1 1 5AC3C48F
P 1700 1500
F 0 "J5" H 1700 1710 50  0000 C CNN
F 1 "Jack-DC" H 1700 1325 50  0000 C CNN
F 2 "Pin_Headers:Pin_Header_Straight_1x03_Pitch2.54mm" H 1750 1460 50  0001 C CNN
F 3 "" H 1750 1460 50  0001 C CNN
	1    1700 1500
	1    0    0    -1  
$EndComp
Text GLabel 2250 1350 2    60   Input ~ 0
PGnd2
Text GLabel 2295 1500 2    60   Input ~ 0
Vdd
$Comp
L C C11
U 1 1 5AC3C95F
P 7300 1550
F 0 "C11" H 7325 1650 50  0000 L CNN
F 1 "10uF" H 7325 1450 50  0000 L CNN
F 2 "Capacitors_SMD:C_0805" H 7338 1400 50  0001 C CNN
F 3 "" H 7300 1550 50  0001 C CNN
	1    7300 1550
	0    -1   -1   0   
$EndComp
$Comp
L GND #PWR03
U 1 1 5AC3C9E2
P 7600 1450
F 0 "#PWR03" H 7600 1200 50  0001 C CNN
F 1 "GND" H 7600 1300 50  0000 C CNN
F 2 "" H 7600 1450 50  0001 C CNN
F 3 "" H 7600 1450 50  0001 C CNN
	1    7600 1450
	1    0    0    -1  
$EndComp
Text GLabel 6755 2760 2    60   Input ~ 0
PGnd1
Text GLabel 4950 4000 0    60   Input ~ 0
Vcc
$Comp
L GND #PWR04
U 1 1 5AC3F774
P 5150 4150
F 0 "#PWR04" H 5150 3900 50  0001 C CNN
F 1 "GND" H 5150 4000 50  0000 C CNN
F 2 "" H 5150 4150 50  0001 C CNN
F 3 "" H 5150 4150 50  0001 C CNN
	1    5150 4150
	1    0    0    -1  
$EndComp
$Comp
L GND #PWR05
U 1 1 5AC3F812
P 5000 4400
F 0 "#PWR05" H 5000 4150 50  0001 C CNN
F 1 "GND" H 5000 4250 50  0000 C CNN
F 2 "" H 5000 4400 50  0001 C CNN
F 3 "" H 5000 4400 50  0001 C CNN
	1    5000 4400
	1    0    0    -1  
$EndComp
$Comp
L GND #PWR06
U 1 1 5AC3F846
P 6500 4400
F 0 "#PWR06" H 6500 4150 50  0001 C CNN
F 1 "GND" H 6500 4250 50  0000 C CNN
F 2 "" H 6500 4400 50  0001 C CNN
F 3 "" H 6500 4400 50  0001 C CNN
	1    6500 4400
	1    0    0    -1  
$EndComp
$Comp
L GND #PWR07
U 1 1 5AC3F87A
P 6650 4100
F 0 "#PWR07" H 6650 3850 50  0001 C CNN
F 1 "GND" H 6650 3950 50  0000 C CNN
F 2 "" H 6650 4100 50  0001 C CNN
F 3 "" H 6650 4100 50  0001 C CNN
	1    6650 4100
	1    0    0    -1  
$EndComp
$Comp
L GND #PWR08
U 1 1 5AC3FADA
P 4800 4200
F 0 "#PWR08" H 4800 3950 50  0001 C CNN
F 1 "GND" H 4800 4050 50  0000 C CNN
F 2 "" H 4800 4200 50  0001 C CNN
F 3 "" H 4800 4200 50  0001 C CNN
	1    4800 4200
	1    0    0    -1  
$EndComp
$Comp
L R R1
U 1 1 5AC3FB98
P 4550 4550
F 0 "R1" V 4630 4550 50  0000 C CNN
F 1 "1k" V 4550 4550 50  0000 C CNN
F 2 "Resistors_SMD:R_0805" V 4480 4550 50  0001 C CNN
F 3 "" H 4550 4550 50  0001 C CNN
	1    4550 4550
	0    1    1    0   
$EndComp
$Comp
L C C3
U 1 1 5AC3FC25
P 4200 4700
F 0 "C3" H 4225 4800 50  0000 L CNN
F 1 "2.7nF" H 4225 4600 50  0000 L CNN
F 2 "Capacitors_SMD:C_0805" H 4238 4550 50  0001 C CNN
F 3 "" H 4200 4700 50  0001 C CNN
	1    4200 4700
	1    0    0    -1  
$EndComp
$Comp
L GND #PWR09
U 1 1 5AC3FC90
P 4200 5050
F 0 "#PWR09" H 4200 4800 50  0001 C CNN
F 1 "GND" H 4200 4900 50  0000 C CNN
F 2 "" H 4200 5050 50  0001 C CNN
F 3 "" H 4200 5050 50  0001 C CNN
	1    4200 5050
	1    0    0    -1  
$EndComp
$Comp
L GND #PWR010
U 1 1 5AC3FCC8
P 3950 4600
F 0 "#PWR010" H 3950 4350 50  0001 C CNN
F 1 "GND" H 3950 4450 50  0000 C CNN
F 2 "" H 3950 4600 50  0001 C CNN
F 3 "" H 3950 4600 50  0001 C CNN
	1    3950 4600
	1    0    0    -1  
$EndComp
$Comp
L C C7
U 1 1 5AC3FF50
P 5100 4850
F 0 "C7" H 5125 4950 50  0000 L CNN
F 1 "220nF" H 5125 4750 50  0000 L CNN
F 2 "Capacitors_SMD:C_0805" H 5138 4700 50  0001 C CNN
F 3 "" H 5100 4850 50  0001 C CNN
	1    5100 4850
	1    0    0    -1  
$EndComp
Text GLabel 6650 1350 1    60   Input ~ 0
Vcc
Text GLabel 8400 3250 2    60   Input ~ 0
Vcc
$Comp
L C C15
U 1 1 5AC43FF7
P 8050 3500
F 0 "C15" H 8075 3600 50  0000 L CNN
F 1 "100nF" H 8075 3400 50  0000 L CNN
F 2 "Capacitors_SMD:C_0805" H 8088 3350 50  0001 C CNN
F 3 "" H 8050 3500 50  0001 C CNN
	1    8050 3500
	1    0    0    -1  
$EndComp
$Comp
L C C12
U 1 1 5AC44048
P 7750 3500
F 0 "C12" H 7775 3600 50  0000 L CNN
F 1 "100uF" H 7775 3400 50  0000 L CNN
F 2 "Capacitors_SMD:C_0805" H 7788 3350 50  0001 C CNN
F 3 "" H 7750 3500 50  0001 C CNN
	1    7750 3500
	1    0    0    -1  
$EndComp
$Comp
L LED D1
U 1 1 5AC44330
P 7900 3200
F 0 "D1" H 7900 3300 50  0000 C CNN
F 1 "LED" H 7900 3100 50  0000 C CNN
F 2 "LEDs:LED_0805" H 7900 3200 50  0001 C CNN
F 3 "" H 7900 3200 50  0001 C CNN
	1    7900 3200
	1    0    0    -1  
$EndComp
$Comp
L GND #PWR011
U 1 1 5AC44539
P 8050 3800
F 0 "#PWR011" H 8050 3550 50  0001 C CNN
F 1 "GND" H 8050 3650 50  0000 C CNN
F 2 "" H 8050 3800 50  0001 C CNN
F 3 "" H 8050 3800 50  0001 C CNN
	1    8050 3800
	1    0    0    -1  
$EndComp
$Comp
L GND #PWR012
U 1 1 5AC44579
P 7750 3800
F 0 "#PWR012" H 7750 3550 50  0001 C CNN
F 1 "GND" H 7750 3650 50  0000 C CNN
F 2 "" H 7750 3800 50  0001 C CNN
F 3 "" H 7750 3800 50  0001 C CNN
	1    7750 3800
	1    0    0    -1  
$EndComp
$Comp
L C C9
U 1 1 5AC4531A
P 6600 4800
F 0 "C9" H 6625 4900 50  0000 L CNN
F 1 "220nF" H 6625 4700 50  0000 L CNN
F 2 "Capacitors_SMD:C_0805" H 6638 4650 50  0001 C CNN
F 3 "" H 6600 4800 50  0001 C CNN
	1    6600 4800
	0    1    1    0   
$EndComp
$Comp
L C C14
U 1 1 5AC45574
P 8000 4450
F 0 "C14" H 8025 4550 50  0000 L CNN
F 1 "100nF" H 8025 4350 50  0000 L CNN
F 2 "Capacitors_SMD:C_0805" H 8038 4300 50  0001 C CNN
F 3 "" H 8000 4450 50  0001 C CNN
	1    8000 4450
	0    1    1    0   
$EndComp
$Comp
L GND #PWR013
U 1 1 5AC455F1
P 8350 4450
F 0 "#PWR013" H 8350 4200 50  0001 C CNN
F 1 "GND" H 8350 4300 50  0000 C CNN
F 2 "" H 8350 4450 50  0001 C CNN
F 3 "" H 8350 4450 50  0001 C CNN
	1    8350 4450
	1    0    0    -1  
$EndComp
$Comp
L C C13
U 1 1 5AC46966
P 8000 4150
F 0 "C13" H 8025 4250 50  0000 L CNN
F 1 "100nF" H 8025 4050 50  0000 L CNN
F 2 "Capacitors_SMD:C_0805" H 8038 4000 50  0001 C CNN
F 3 "" H 8000 4150 50  0001 C CNN
	1    8000 4150
	0    1    1    0   
$EndComp
$Comp
L GND #PWR014
U 1 1 5AC46A71
P 8300 4150
F 0 "#PWR014" H 8300 3900 50  0001 C CNN
F 1 "GND" H 8300 4000 50  0000 C CNN
F 2 "" H 8300 4150 50  0001 C CNN
F 3 "" H 8300 4150 50  0001 C CNN
	1    8300 4150
	1    0    0    -1  
$EndComp
$Comp
L R R3
U 1 1 5AC47596
P 6350 3500
F 0 "R3" V 6430 3500 50  0000 C CNN
F 1 "1k" V 6350 3500 50  0000 C CNN
F 2 "Resistors_SMD:R_0805" V 6280 3500 50  0001 C CNN
F 3 "" H 6350 3500 50  0001 C CNN
	1    6350 3500
	1    0    0    -1  
$EndComp
$Comp
L C C10
U 1 1 5AC475E9
P 6700 3350
F 0 "C10" H 6725 3450 50  0000 L CNN
F 1 "2.7nF" H 6725 3250 50  0000 L CNN
F 2 "Capacitors_SMD:C_0805" H 6738 3200 50  0001 C CNN
F 3 "" H 6700 3350 50  0001 C CNN
	1    6700 3350
	0    1    1    0   
$EndComp
$Comp
L GND #PWR015
U 1 1 5AC47C69
P 7050 3350
F 0 "#PWR015" H 7050 3100 50  0001 C CNN
F 1 "GND" H 7050 3200 50  0000 C CNN
F 2 "" H 7050 3350 50  0001 C CNN
F 3 "" H 7050 3350 50  0001 C CNN
	1    7050 3350
	1    0    0    -1  
$EndComp
Text GLabel 6400 3250 0    60   Input ~ 0
PGnd1
$Comp
L C C8
U 1 1 5AC4870B
P 5350 6650
F 0 "C8" H 5375 6750 50  0000 L CNN
F 1 "10uF" H 5375 6550 50  0000 L CNN
F 2 "Capacitors_SMD:C_0805" H 5388 6500 50  0001 C CNN
F 3 "" H 5350 6650 50  0001 C CNN
	1    5350 6650
	1    0    0    -1  
$EndComp
$Comp
L GND #PWR016
U 1 1 5AC48766
P 5350 6950
F 0 "#PWR016" H 5350 6700 50  0001 C CNN
F 1 "GND" H 5350 6800 50  0000 C CNN
F 2 "" H 5350 6950 50  0001 C CNN
F 3 "" H 5350 6950 50  0001 C CNN
	1    5350 6950
	1    0    0    -1  
$EndComp
Text GLabel 4900 5850 0    60   Input ~ 0
Vdd
Text GLabel 4950 6000 0    60   Input ~ 0
PGnd2
$Comp
L R R2
U 1 1 5AC492FA
P 4850 5550
F 0 "R2" V 4930 5550 50  0000 C CNN
F 1 "0.4" V 4850 5550 50  0000 C CNN
F 2 "Resistors_SMD:R_0805" V 4780 5550 50  0001 C CNN
F 3 "" H 4850 5550 50  0001 C CNN
	1    4850 5550
	0    1    1    0   
$EndComp
$Comp
L GND #PWR017
U 1 1 5AC4937B
P 4500 5550
F 0 "#PWR017" H 4500 5300 50  0001 C CNN
F 1 "GND" H 4500 5400 50  0000 C CNN
F 2 "" H 4500 5550 50  0001 C CNN
F 3 "" H 4500 5550 50  0001 C CNN
	1    4500 5550
	1    0    0    -1  
$EndComp
Text GLabel 2640 1700 0    60   Input ~ 0
Vdd
Text GLabel 2575 4915 0    60   Input ~ 0
PGnd2
$Comp
L CONN_PWM U4
U 1 1 5ACCB55F
P 1000 3250
F 0 "U4" H 1145 2700 60  0000 C CNN
F 1 "CONN_PWM" H 1000 3250 60  0000 C CNN
F 2 "Pin_Headers:Pin_Header_Straight_1x02_Pitch2.54mm" H 1000 3250 60  0001 C CNN
F 3 "" H 1000 3250 60  0001 C CNN
	1    1000 3250
	1    0    0    -1  
$EndComp
$Comp
L CONN_PWM U5
U 1 1 5ACCB60E
P 1000 4200
F 0 "U5" H 1165 3635 60  0000 C CNN
F 1 "CONN_PWM" H 1000 4200 60  0000 C CNN
F 2 "Pin_Headers:Pin_Header_Straight_1x02_Pitch2.54mm" H 1000 4200 60  0001 C CNN
F 3 "" H 1000 4200 60  0001 C CNN
	1    1000 4200
	1    0    0    -1  
$EndComp
Text GLabel 1500 3450 2    60   Input ~ 0
PWM0
Text GLabel 1550 3600 2    60   Input ~ 0
GPIO0
Text GLabel 1550 4400 2    60   Input ~ 0
PWM1
Text GLabel 1550 4550 2    60   Input ~ 0
GPIO1
Text GLabel 2050 2600 0    60   Input ~ 0
PWM0
Text GLabel 2050 2400 0    60   Input ~ 0
GPIO0
Text GLabel 4100 3600 2    60   Input ~ 0
PWM1
Text GLabel 4025 2695 2    60   Input ~ 0
GPIO1
NoConn ~ 5900 4200
$Comp
L DRV10975PWPR U1
U 1 1 5A9EC22D
P 5950 1650
F 0 "U1" H 6230 270 60  0000 C CNN
F 1 "DRV10975PWPR" H 5950 1650 60  0000 C CNN
F 2 "Housings_SSOP:TSSOP-24_4.4x7.8mm_Pitch0.65mm" H 5950 1650 60  0001 C CNN
F 3 "" H 5950 1650 60  0001 C CNN
	1    5950 1650
	1    0    0    -1  
$EndComp
NoConn ~ 3950 3300
NoConn ~ 3950 3200
NoConn ~ 5400 2950
NoConn ~ 3950 2400
NoConn ~ 3950 2600
NoConn ~ 3950 2900
NoConn ~ 3950 3000
NoConn ~ 3950 3100
NoConn ~ 2150 2700
NoConn ~ 2150 2800
NoConn ~ 2150 2900
NoConn ~ 2150 3100
NoConn ~ 2150 3200
NoConn ~ 2150 3300
NoConn ~ 2150 3400
NoConn ~ 2150 3500
NoConn ~ 2150 3800
NoConn ~ 2150 3900
NoConn ~ 3950 3900
NoConn ~ 3150 1800
NoConn ~ 3250 1800
Wire Wire Line
	3950 2200 4200 2200
Wire Wire Line
	3950 2300 4050 2300
Wire Wire Line
	4050 2300 4050 2400
Wire Wire Line
	4050 2400 4200 2400
Wire Wire Line
	5250 2700 5350 2700
Wire Wire Line
	5350 2700 5350 2750
Wire Wire Line
	5350 2750 5400 2750
Wire Wire Line
	5300 2850 5400 2850
Wire Wire Line
	5295 3515 5400 3800
Wire Wire Line
	6400 5400 6550 5400
Wire Wire Line
	6400 5550 6550 5550
Wire Wire Line
	6350 2050 6350 2150
Wire Wire Line
	6350 2100 6800 2100
Wire Wire Line
	6800 2100 6800 2050
Wire Wire Line
	6800 2050 7700 2050
Wire Wire Line
	7700 2050 7700 2150
Connection ~ 6350 2100
Wire Wire Line
	6350 2250 6350 2350
Wire Wire Line
	6350 2300 7100 2300
Wire Wire Line
	7100 2300 7100 1900
Wire Wire Line
	7100 1900 7800 1900
Wire Wire Line
	7800 1900 7800 2250
Wire Wire Line
	7800 2250 7700 2250
Connection ~ 6350 2300
Wire Wire Line
	6350 2450 6350 2550
Wire Wire Line
	6350 2500 6950 2500
Wire Wire Line
	6950 2500 6950 1700
Wire Wire Line
	6950 1700 7900 1700
Wire Wire Line
	7900 1700 7900 2350
Wire Wire Line
	7900 2350 7700 2350
Connection ~ 6350 2500
Wire Wire Line
	6350 2650 7700 2650
Wire Wire Line
	7700 2650 7700 2450
Wire Wire Line
	6350 4000 6800 4000
Wire Wire Line
	6800 4000 6800 3800
Wire Wire Line
	6800 3800 7450 3800
Wire Wire Line
	7450 3800 7450 4050
Wire Wire Line
	6350 4200 6550 4200
Wire Wire Line
	6550 4200 6550 3600
Wire Wire Line
	6550 3600 7600 3600
Wire Wire Line
	7600 3600 7600 4150
Wire Wire Line
	7600 4150 7450 4150
Wire Wire Line
	6350 4300 6700 4300
Wire Wire Line
	6700 4300 6700 4500
Wire Wire Line
	6700 4500 7600 4500
Wire Wire Line
	7600 4500 7600 4250
Wire Wire Line
	7600 4250 7450 4250
Wire Wire Line
	6350 4500 6500 4500
Wire Wire Line
	6500 4500 6500 4450
Wire Wire Line
	6500 4450 7450 4450
Wire Wire Line
	7450 4450 7450 4350
Wire Wire Line
	5450 5700 5250 5700
Wire Wire Line
	5250 5700 5250 6350
Wire Wire Line
	5250 6350 7800 6350
Wire Wire Line
	7800 6350 7800 5650
Wire Wire Line
	7800 5650 7550 5650
Wire Wire Line
	5450 5400 5100 5400
Wire Wire Line
	5100 5400 5100 6200
Wire Wire Line
	5100 6200 7550 6200
Wire Wire Line
	7550 6200 7550 5800
Wire Wire Line
	5400 1850 5400 1650
Wire Wire Line
	5400 1650 4700 1650
Wire Wire Line
	4700 1350 6350 1350
Wire Wire Line
	6350 1350 6350 1850
Wire Wire Line
	4850 2100 5400 2100
Wire Wire Line
	5400 2100 5400 2050
Wire Wire Line
	5400 1950 5100 1950
Wire Wire Line
	5100 1950 5100 1800
Wire Wire Line
	5100 1800 4850 1800
Wire Wire Line
	5400 2150 5250 2150
Wire Wire Line
	5250 2150 5250 2200
Wire Wire Line
	4800 2200 4950 2200
Wire Wire Line
	4800 2200 4800 2050
Wire Wire Line
	4800 2050 4650 2050
Wire Wire Line
	4650 2350 4800 2350
Wire Wire Line
	5400 2350 4850 2350
Wire Wire Line
	4850 2350 4850 2200
Connection ~ 4850 2200
Wire Wire Line
	4800 2350 4800 2300
Wire Wire Line
	4800 2300 5400 2300
Wire Wire Line
	5400 2300 5400 2250
Wire Wire Line
	5400 2450 4650 2450
Wire Wire Line
	4650 2450 4650 2500
Wire Wire Line
	4650 2800 4500 2800
Wire Wire Line
	4500 2800 4500 2850
Wire Wire Line
	5400 2550 4850 2550
Wire Wire Line
	4850 2550 4850 2850
Wire Wire Line
	4850 2850 4350 2850
Wire Wire Line
	6350 2650 6350 2750
Connection ~ 6350 2700
Wire Wire Line
	1750 950  2010 950 
Wire Wire Line
	1750 850  1750 800 
Wire Wire Line
	1750 800  1950 800 
Wire Wire Line
	2000 1400 2000 1350
Wire Wire Line
	2000 1350 2250 1350
Wire Wire Line
	6350 1850 6800 1850
Wire Wire Line
	6800 1850 6800 1550
Wire Wire Line
	6800 1550 7150 1550
Wire Wire Line
	7450 1550 7450 1450
Wire Wire Line
	7450 1450 7600 1450
Connection ~ 6600 1850
Wire Wire Line
	6350 1950 6450 1950
Wire Wire Line
	6450 1950 6450 1850
Connection ~ 6450 1850
Wire Wire Line
	6350 2700 6700 2700
Wire Wire Line
	6700 2700 6755 2760
Wire Wire Line
	4950 4000 5400 4000
Wire Wire Line
	6350 4100 6650 4100
Wire Wire Line
	6350 4400 6500 4400
Wire Wire Line
	5400 4100 5150 4100
Wire Wire Line
	5150 4100 5150 4150
Wire Wire Line
	5000 4400 5400 4400
Wire Wire Line
	5400 4200 4800 4200
Wire Wire Line
	5400 4500 4700 4500
Wire Wire Line
	4700 4500 4700 4550
Wire Wire Line
	3950 4550 4400 4550
Wire Wire Line
	4200 5050 4200 4850
Wire Wire Line
	3950 4550 3950 4600
Connection ~ 4200 4550
Wire Wire Line
	5400 4600 5100 4600
Wire Wire Line
	5100 4600 5100 4700
Wire Wire Line
	5100 5000 5400 5000
Wire Wire Line
	5400 5000 5400 4700
Wire Wire Line
	6600 1850 6600 1350
Wire Wire Line
	6600 1350 6650 1350
Wire Wire Line
	8050 3250 8400 3250
Wire Wire Line
	8050 3250 8050 3200
Wire Wire Line
	8050 3350 8200 3350
Wire Wire Line
	8200 3350 8200 3250
Connection ~ 8200 3250
Wire Wire Line
	8050 3650 8050 3800
Wire Wire Line
	7750 3650 7750 3800
Wire Wire Line
	7750 3200 7650 3200
Wire Wire Line
	7650 3200 7650 4800
Wire Wire Line
	7650 4600 6350 4600
Wire Wire Line
	7650 4800 6750 4800
Connection ~ 7650 4600
Wire Wire Line
	6450 4800 6350 4800
Wire Wire Line
	6350 4800 6350 4700
Wire Wire Line
	7850 4450 7650 4450
Connection ~ 7650 4450
Wire Wire Line
	8150 4450 8350 4450
Connection ~ 8200 4450
Wire Wire Line
	6350 3900 6700 3900
Wire Wire Line
	6700 3900 6700 3650
Wire Wire Line
	6700 3650 7650 3650
Connection ~ 7650 3650
Wire Wire Line
	7650 4150 7850 4150
Connection ~ 7650 4150
Wire Wire Line
	8150 4150 8300 4150
Wire Wire Line
	6350 3800 6350 3650
Wire Wire Line
	6850 3350 7050 3350
Wire Wire Line
	6500 3250 6400 3250
Wire Wire Line
	4900 5850 5450 5850
Wire Wire Line
	5350 5850 5350 6500
Wire Wire Line
	5350 6800 5350 6950
Connection ~ 5350 5850
Wire Wire Line
	5450 6000 4950 6000
Wire Wire Line
	5450 5550 5000 5550
Wire Wire Line
	4700 5550 4500 5550
Wire Wire Line
	2640 1700 2950 1700
Wire Wire Line
	2950 1700 2950 1800
Wire Wire Line
	3350 4500 3350 4400
Wire Wire Line
	2500 4500 3350 4500
Wire Wire Line
	2650 4400 2650 4500
Connection ~ 2650 4500
Wire Wire Line
	2750 4400 2750 4500
Connection ~ 2750 4500
Wire Wire Line
	2850 4400 2850 4500
Connection ~ 2850 4500
Wire Wire Line
	2950 4400 2950 4500
Connection ~ 2950 4500
Wire Wire Line
	3050 4400 3050 4500
Connection ~ 3050 4500
Wire Wire Line
	3150 4400 3150 4500
Connection ~ 3150 4500
Wire Wire Line
	3250 4400 3250 4500
Connection ~ 3250 4500
Wire Wire Line
	1400 3450 1500 3450
Wire Wire Line
	1400 3600 1550 3600
Wire Wire Line
	1400 4400 1550 4400
Wire Wire Line
	1400 4550 1550 4550
Wire Wire Line
	2050 2600 2150 2600
Wire Wire Line
	3950 3600 4100 3600
Wire Wire Line
	7650 3350 7750 3350
Connection ~ 7650 3350
Wire Wire Line
	4650 3000 4350 3000
Wire Wire Line
	4350 3000 4350 2850
Connection ~ 4500 2850
Wire Wire Line
	4650 3300 4950 3300
Wire Wire Line
	4950 3300 4950 2600
Wire Wire Line
	4950 2600 5400 2600
Wire Wire Line
	5400 2600 5400 2650
Wire Wire Line
	1800 800  1800 1050
Wire Wire Line
	1800 1050 1750 1050
Connection ~ 1800 800 
Wire Wire Line
	2050 1350 2050 1600
Wire Wire Line
	2050 1600 2000 1600
Connection ~ 2050 1350
Wire Wire Line
	2295 1500 2000 1500
Wire Wire Line
	6350 3350 6550 3350
Wire Wire Line
	6500 3250 6500 3350
Connection ~ 6500 3350
Wire Wire Line
	2850 1800 2850 1700
Connection ~ 2850 1700
Text GLabel 2580 4755 0    60   Input ~ 0
PGnd1
$Comp
L GND #PWR018
U 1 1 5AD4397E
P 2315 4430
F 0 "#PWR018" H 2315 4180 50  0001 C CNN
F 1 "GND" H 2315 4280 50  0000 C CNN
F 2 "" H 2315 4430 50  0001 C CNN
F 3 "" H 2315 4430 50  0001 C CNN
	1    2315 4430
	1    0    0    -1  
$EndComp
Wire Wire Line
	2315 4430 2500 4430
Wire Wire Line
	2500 4430 2500 4500
Wire Wire Line
	2580 4755 2700 4755
Wire Wire Line
	2700 4755 2700 4500
Connection ~ 2700 4500
Wire Wire Line
	2575 4915 2800 4915
Wire Wire Line
	2800 4915 2800 4500
Connection ~ 2800 4500
$Comp
L R R0
U 1 1 5AD73731
P 5145 3840
F 0 "R0" V 5225 3840 50  0000 C CNN
F 1 "0" V 5145 3840 50  0000 C CNN
F 2 "Resistors_SMD:R_0805" V 5075 3840 50  0001 C CNN
F 3 "" H 5145 3840 50  0001 C CNN
	1    5145 3840
	0    1    1    0   
$EndComp
Wire Wire Line
	5295 3840 5400 3840
Wire Wire Line
	5400 3840 5400 3900
Wire Wire Line
	4995 3840 4995 3760
Wire Wire Line
	4995 3760 4920 3760
Wire Wire Line
	2050 2400 2085 2400
Wire Wire Line
	2085 2400 2085 2500
Wire Wire Line
	2085 2500 2150 2500
NoConn ~ 2150 2400
NoConn ~ 3950 3500
NoConn ~ 2150 3000
Wire Wire Line
	3950 2700 3990 2700
Wire Wire Line
	3990 2700 3990 2695
Wire Wire Line
	3990 2695 4025 2695
NoConn ~ 3950 3800
NoConn ~ 5355 3710
$EndSCHEMATC
