(export (version D)
  (design
    (source "F:/KiCad PO/Carte elec1.sch")
    (date "20/04/2018 17:39:22")
    (tool "Eeschema 4.0.7")
    (sheet (number 1) (name /) (tstamps /)
      (title_block
        (title)
        (company)
        (rev)
        (date)
        (source "Carte elec1.sch")
        (comment (number 1) (value ""))
        (comment (number 2) (value ""))
        (comment (number 3) (value ""))
        (comment (number 4) (value "")))))
  (components
    (comp (ref J0)
      (value Raspberry_Pi_2_3)
      (footprint Pin_Headers:Pin_Header_Straight_2x20_Pitch2.54mm)
      (libsource (lib conn) (part Raspberry_Pi_2_3))
      (sheetpath (names /) (tstamps /))
      (tstamp 5A9EC085))
    (comp (ref U3)
      (value DRV8830)
      (footprint Housings_SSOP:MSOP-10_3x3mm_Pitch0.5mm)
      (libsource (lib drv8830) (part DRV8830))
      (sheetpath (names /) (tstamps /))
      (tstamp 5A9EC1EC))
    (comp (ref U2)
      (value NCV70624)
      (footprint Housings_SOIC:SOIC-20W_7.5x12.8mm_Pitch1.27mm)
      (libsource (lib ncv70624) (part NCV70624))
      (sheetpath (names /) (tstamps /))
      (tstamp 5A9EC27E))
    (comp (ref J1)
      (value CONN-BLDC)
      (footprint Pin_Headers:Pin_Header_Straight_1x04_Pitch2.54mm)
      (libsource (lib conn-bldc) (part CONN-BLDC))
      (sheetpath (names /) (tstamps /))
      (tstamp 5A9EC2CB))
    (comp (ref J3)
      (value CONN-DC)
      (footprint Pin_Headers:Pin_Header_Straight_1x02_Pitch2.54mm)
      (libsource (lib conn-dc) (part CONN-DC))
      (sheetpath (names /) (tstamps /))
      (tstamp 5A9EC304))
    (comp (ref J2)
      (value CONN-PaP)
      (footprint Pin_Headers:Pin_Header_Straight_1x04_Pitch2.54mm)
      (libsource (lib conn-pap) (part CONN-PaP))
      (sheetpath (names /) (tstamps /))
      (tstamp 5A9EC361))
    (comp (ref C1)
      (value 0.1uF)
      (footprint Capacitors_SMD:C_0805)
      (libsource (lib device) (part C))
      (sheetpath (names /) (tstamps /))
      (tstamp 5AC3736C))
    (comp (ref C2)
      (value 0.1uF)
      (footprint Capacitors_SMD:C_0805)
      (libsource (lib device) (part C))
      (sheetpath (names /) (tstamps /))
      (tstamp 5AC37415))
    (comp (ref C4)
      (value 10uF)
      (footprint Capacitors_SMD:C_0805)
      (libsource (lib device) (part C))
      (sheetpath (names /) (tstamps /))
      (tstamp 5AC3AAB2))
    (comp (ref C5)
      (value 1uF)
      (footprint Capacitors_SMD:C_0805)
      (libsource (lib device) (part C))
      (sheetpath (names /) (tstamps /))
      (tstamp 5AC3AAF1))
    (comp (ref C6)
      (value 1uF)
      (footprint Capacitors_SMD:C_0805)
      (libsource (lib device) (part C))
      (sheetpath (names /) (tstamps /))
      (tstamp 5AC3AB43))
    (comp (ref L1)
      (value 47uH)
      (footprint Inductors_SMD:L_0805)
      (libsource (lib device) (part L))
      (sheetpath (names /) (tstamps /))
      (tstamp 5AC3AB80))
    (comp (ref J12)
      (value Jack-DC)
      (footprint Pin_Headers:Pin_Header_Straight_1x03_Pitch2.54mm)
      (libsource (lib conn) (part Jack-DC))
      (sheetpath (names /) (tstamps /))
      (tstamp 5AC3C003))
    (comp (ref J5)
      (value Jack-DC)
      (footprint Pin_Headers:Pin_Header_Straight_1x03_Pitch2.54mm)
      (libsource (lib conn) (part Jack-DC))
      (sheetpath (names /) (tstamps /))
      (tstamp 5AC3C48F))
    (comp (ref C11)
      (value 10uF)
      (footprint Capacitors_SMD:C_0805)
      (libsource (lib device) (part C))
      (sheetpath (names /) (tstamps /))
      (tstamp 5AC3C95F))
    (comp (ref R1)
      (value 1k)
      (footprint Resistors_SMD:R_0805)
      (libsource (lib device) (part R))
      (sheetpath (names /) (tstamps /))
      (tstamp 5AC3FB98))
    (comp (ref C3)
      (value 2.7nF)
      (footprint Capacitors_SMD:C_0805)
      (libsource (lib device) (part C))
      (sheetpath (names /) (tstamps /))
      (tstamp 5AC3FC25))
    (comp (ref C7)
      (value 220nF)
      (footprint Capacitors_SMD:C_0805)
      (libsource (lib device) (part C))
      (sheetpath (names /) (tstamps /))
      (tstamp 5AC3FF50))
    (comp (ref C15)
      (value 100nF)
      (footprint Capacitors_SMD:C_0805)
      (libsource (lib device) (part C))
      (sheetpath (names /) (tstamps /))
      (tstamp 5AC43FF7))
    (comp (ref C12)
      (value 100uF)
      (footprint Capacitors_SMD:C_0805)
      (libsource (lib device) (part C))
      (sheetpath (names /) (tstamps /))
      (tstamp 5AC44048))
    (comp (ref D1)
      (value LED)
      (footprint LEDs:LED_0805)
      (libsource (lib device) (part LED))
      (sheetpath (names /) (tstamps /))
      (tstamp 5AC44330))
    (comp (ref C9)
      (value 220nF)
      (footprint Capacitors_SMD:C_0805)
      (libsource (lib device) (part C))
      (sheetpath (names /) (tstamps /))
      (tstamp 5AC4531A))
    (comp (ref C14)
      (value 100nF)
      (footprint Capacitors_SMD:C_0805)
      (libsource (lib device) (part C))
      (sheetpath (names /) (tstamps /))
      (tstamp 5AC45574))
    (comp (ref C13)
      (value 100nF)
      (footprint Capacitors_SMD:C_0805)
      (libsource (lib device) (part C))
      (sheetpath (names /) (tstamps /))
      (tstamp 5AC46966))
    (comp (ref R3)
      (value 1k)
      (footprint Resistors_SMD:R_0805)
      (libsource (lib device) (part R))
      (sheetpath (names /) (tstamps /))
      (tstamp 5AC47596))
    (comp (ref C10)
      (value 2.7nF)
      (footprint Capacitors_SMD:C_0805)
      (libsource (lib device) (part C))
      (sheetpath (names /) (tstamps /))
      (tstamp 5AC475E9))
    (comp (ref C8)
      (value 10uF)
      (footprint Capacitors_SMD:C_0805)
      (libsource (lib device) (part C))
      (sheetpath (names /) (tstamps /))
      (tstamp 5AC4870B))
    (comp (ref R2)
      (value 0.4)
      (footprint Resistors_SMD:R_0805)
      (libsource (lib device) (part R))
      (sheetpath (names /) (tstamps /))
      (tstamp 5AC492FA))
    (comp (ref U4)
      (value CONN_PWM)
      (footprint Pin_Headers:Pin_Header_Straight_1x02_Pitch2.54mm)
      (libsource (lib conn_pwm) (part CONN_PWM))
      (sheetpath (names /) (tstamps /))
      (tstamp 5ACCB55F))
    (comp (ref U5)
      (value CONN_PWM)
      (footprint Pin_Headers:Pin_Header_Straight_1x02_Pitch2.54mm)
      (libsource (lib conn_pwm) (part CONN_PWM))
      (sheetpath (names /) (tstamps /))
      (tstamp 5ACCB60E))
    (comp (ref U1)
      (value DRV10975PWPR)
      (footprint Housings_SSOP:TSSOP-24_4.4x7.8mm_Pitch0.65mm)
      (libsource (lib drv10975pwpr) (part DRV10975PWPR))
      (sheetpath (names /) (tstamps /))
      (tstamp 5A9EC22D))
    (comp (ref R0)
      (value 0)
      (footprint Resistors_SMD:R_0805)
      (libsource (lib device) (part R))
      (sheetpath (names /) (tstamps /))
      (tstamp 5AD73731)))
  (libparts
    (libpart (lib conn) (part Barrel_Jack)
      (aliases
        (alias Jack-DC))
      (description "DC Barrel Jack")
      (docs ~)
      (fields
        (field (name Reference) J)
        (field (name Value) Barrel_Jack))
      (pins
        (pin (num 1) (name ~) (type passive))
        (pin (num 2) (name ~) (type passive))
        (pin (num 3) (name ~) (type passive))))
    (libpart (lib device) (part C)
      (description "Unpolarized capacitor")
      (footprints
        (fp C_*))
      (fields
        (field (name Reference) C)
        (field (name Value) C))
      (pins
        (pin (num 1) (name ~) (type passive))
        (pin (num 2) (name ~) (type passive))))
    (libpart (lib conn-bldc) (part CONN-BLDC)
      (fields
        (field (name Reference) J)
        (field (name Value) CONN-BLDC))
      (pins
        (pin (num 1) (name W) (type power_in))
        (pin (num 2) (name V) (type power_in))
        (pin (num 3) (name U) (type power_in))
        (pin (num 4) (name GND) (type power_in))))
    (libpart (lib conn-dc) (part CONN-DC)
      (fields
        (field (name Reference) J)
        (field (name Value) CONN-DC))
      (pins
        (pin (num 1) (name OUT1) (type power_in))
        (pin (num 2) (name OUT2) (type power_in))))
    (libpart (lib conn-pap) (part CONN-PaP)
      (fields
        (field (name Reference) J)
        (field (name Value) CONN-PaP))
      (pins
        (pin (num 1) (name MOTXP) (type power_in))
        (pin (num 2) (name MOTXN) (type power_in))
        (pin (num 3) (name MOTYP) (type power_in))
        (pin (num 4) (name MOTYN) (type power_in))))
    (libpart (lib conn_pwm) (part CONN_PWM)
      (fields
        (field (name Reference) U)
        (field (name Value) CONN_PWM))
      (pins
        (pin (num 1) (name PWM) (type BiDi))
        (pin (num 2) (name GPIO) (type BiDi))))
    (libpart (lib drv10975pwpr) (part DRV10975PWPR)
      (fields
        (field (name Reference) U)
        (field (name Value) DRV10975PWPR))
      (pins
        (pin (num 1) (name VCP) (type power_in))
        (pin (num 2) (name CPP) (type BiDi))
        (pin (num 3) (name CPN) (type BiDi))
        (pin (num 4) (name SW) (type BiDi))
        (pin (num 5) (name SWGND) (type power_in))
        (pin (num 6) (name VREG) (type power_in))
        (pin (num 7) (name V1P8) (type output))
        (pin (num 8) (name GND) (type power_in))
        (pin (num 9) (name V3P3) (type power_in))
        (pin (num 10) (name SCL) (type input))
        (pin (num 11) (name SDA) (type BiDi))
        (pin (num 12) (name FG) (type output))
        (pin (num 13) (name SPEED) (type NotConnected))
        (pin (num 14) (name DIR) (type NotConnected))
        (pin (num 15) (name PGND) (type power_in))
        (pin (num 16) (name PGND) (type power_in))
        (pin (num 17) (name U) (type BiDi))
        (pin (num 18) (name U) (type BiDi))
        (pin (num 19) (name V) (type BiDi))
        (pin (num 20) (name V) (type BiDi))
        (pin (num 21) (name W) (type BiDi))
        (pin (num 22) (name W) (type BiDi))
        (pin (num 23) (name VCC) (type power_in))
        (pin (num 24) (name VCC) (type power_in))))
    (libpart (lib drv8830) (part DRV8830)
      (fields
        (field (name Reference) U)
        (field (name Value) DRV8830))
      (pins
        (pin (num 1) (name OUT2) (type output))
        (pin (num 2) (name ISENSE) (type BiDi))
        (pin (num 3) (name OUT1) (type output))
        (pin (num 4) (name VCC) (type power_in))
        (pin (num 5) (name GND) (type passive))
        (pin (num 6) (name FAULTn) (type NotConnected))
        (pin (num 7) (name A0) (type NotConnected))
        (pin (num 8) (name A1) (type NotConnected))
        (pin (num 9) (name SDA) (type input))
        (pin (num 10) (name SCL) (type input))))
    (libpart (lib device) (part L)
      (description Inductor)
      (footprints
        (fp Choke_*)
        (fp *Coil*)
        (fp Inductor_*)
        (fp L_*))
      (fields
        (field (name Reference) L)
        (field (name Value) L))
      (pins
        (pin (num 1) (name 1) (type passive))
        (pin (num 2) (name 2) (type passive))))
    (libpart (lib device) (part LED)
      (description "LED generic")
      (footprints
        (fp LED*))
      (fields
        (field (name Reference) D)
        (field (name Value) LED))
      (pins
        (pin (num 1) (name K) (type passive))
        (pin (num 2) (name A) (type passive))))
    (libpart (lib ncv70624) (part NCV70624)
      (fields
        (field (name Reference) U)
        (field (name Value) NCV70624))
      (pins
        (pin (num 1) (name SDA) (type input))
        (pin (num 2) (name SCK) (type input))
        (pin (num 3) (name VDD) (type power_in))
        (pin (num 4) (name GND) (type passive))
        (pin (num 5) (name TST1) (type input))
        (pin (num 6) (name TST2) (type NotConnected))
        (pin (num 7) (name GND) (type passive))
        (pin (num 8) (name HW) (type BiDi))
        (pin (num 9) (name CPN) (type BiDi))
        (pin (num 10) (name CPP) (type BiDi))
        (pin (num 11) (name VCP) (type power_in))
        (pin (num 12) (name VBB) (type power_in))
        (pin (num 13) (name MOTYN) (type output))
        (pin (num 14) (name GND) (type passive))
        (pin (num 15) (name MOTYP) (type output))
        (pin (num 16) (name MOTXN) (type output))
        (pin (num 17) (name GND) (type passive))
        (pin (num 18) (name MOTXP) (type output))
        (pin (num 19) (name VBB) (type power_in))
        (pin (num 20) (name SWI) (type input))))
    (libpart (lib device) (part R)
      (description Resistor)
      (footprints
        (fp R_*)
        (fp R_*))
      (fields
        (field (name Reference) R)
        (field (name Value) R))
      (pins
        (pin (num 1) (name ~) (type passive))
        (pin (num 2) (name ~) (type passive))))
    (libpart (lib conn) (part Raspberry_Pi_2_3)
      (description "expansion header for Raspberry Pi 2 & 3")
      (docs https://www.raspberrypi.org/documentation/hardware/raspberrypi/schematics/RPI-3B-V1_2-SCHEMATIC-REDUCED.pdf)
      (fields
        (field (name Reference) J)
        (field (name Value) Raspberry_Pi_2_3)
        (field (name Footprint) Pin_Headers:Pin_Header_Straight_2x20))
      (pins
        (pin (num 1) (name 3V3) (type power_out))
        (pin (num 2) (name 5V) (type passive))
        (pin (num 3) (name "(SDA1)_GPIO2") (type BiDi))
        (pin (num 4) (name 5V) (type passive))
        (pin (num 5) (name "(SCL1)_GPIO3") (type BiDi))
        (pin (num 6) (name GND) (type passive))
        (pin (num 7) (name "(GCLK)_GPIO4") (type BiDi))
        (pin (num 8) (name "(TXD0)_GPIO14") (type BiDi))
        (pin (num 9) (name GND) (type passive))
        (pin (num 10) (name "(RXD0)_GPIO15") (type BiDi))
        (pin (num 11) (name "GPIO17_(GEN0)") (type BiDi))
        (pin (num 12) (name "GPIO18_(GEN1)") (type BiDi))
        (pin (num 13) (name "GPIO27_(GEN2)") (type BiDi))
        (pin (num 14) (name GND) (type passive))
        (pin (num 15) (name "GPIO22_(GEN3)") (type BiDi))
        (pin (num 16) (name "GPIO23_(GEN4)") (type BiDi))
        (pin (num 17) (name 3V3) (type power_out))
        (pin (num 18) (name "GPIO24_(GEN5)") (type BiDi))
        (pin (num 19) (name "(SPI_MOSI)_GPIO10") (type BiDi))
        (pin (num 20) (name GND) (type passive))
        (pin (num 21) (name "(SPI_MISO)_GPIO9") (type BiDi))
        (pin (num 22) (name "GPIO25_(GEN6)") (type BiDi))
        (pin (num 23) (name "(SPI_SCLK)_GPIO11") (type BiDi))
        (pin (num 24) (name "(~SPI_CE0~)_GPIO8") (type BiDi))
        (pin (num 25) (name GND) (type passive))
        (pin (num 26) (name "(~SPI_CE1~)_GPIO7") (type BiDi))
        (pin (num 27) (name ID_SD) (type BiDi))
        (pin (num 28) (name ID_SC) (type BiDi))
        (pin (num 29) (name GPIO5) (type BiDi))
        (pin (num 30) (name GND) (type passive))
        (pin (num 31) (name GPIO6) (type BiDi))
        (pin (num 32) (name GPIO12) (type BiDi))
        (pin (num 33) (name GPIO13) (type BiDi))
        (pin (num 34) (name GND) (type passive))
        (pin (num 35) (name GPIO19) (type BiDi))
        (pin (num 36) (name GPIO16) (type BiDi))
        (pin (num 37) (name GPIO26) (type BiDi))
        (pin (num 38) (name GPIO20) (type BiDi))
        (pin (num 39) (name GND) (type passive))
        (pin (num 40) (name GPIO21) (type BiDi)))))
  (libraries
    (library (logical conn-pap)
      (uri "F:\\KiCad PO\\librairie Kicad\\conn-pap.lib"))
    (library (logical conn-bldc)
      (uri "F:\\KiCad PO\\librairie Kicad\\conn-bldc.lib"))
    (library (logical drv8830)
      (uri "F:\\KiCad PO\\librairie Kicad\\drv8830.lib"))
    (library (logical conn-dc)
      (uri "F:\\KiCad PO\\librairie Kicad\\conn-dc.lib"))
    (library (logical conn_pwm)
      (uri "F:\\KiCad PO\\librairie Kicad\\conn_pwm.lib"))
    (library (logical ncv70624)
      (uri "F:\\KiCad PO\\librairie Kicad\\ncv70624.lib"))
    (library (logical drv10975pwpr)
      (uri "F:\\KiCad PO\\librairie Kicad\\drv10975pwpr.lib"))
    (library (logical device)
      (uri "C:\\Program Files\\KiCad\\share\\kicad\\library\\device.lib"))
    (library (logical conn)
      (uri "C:\\Program Files\\KiCad\\share\\kicad\\library\\conn.lib")))
  (nets
    (net (code 1) (name "Net-(C5-Pad1)")
      (node (ref C5) (pin 1))
      (node (ref U1) (pin 7)))
    (net (code 2) (name "Net-(C4-Pad1)")
      (node (ref L1) (pin 1))
      (node (ref C4) (pin 1))
      (node (ref U1) (pin 6)))
    (net (code 3) (name "Net-(L1-Pad2)")
      (node (ref L1) (pin 2))
      (node (ref U1) (pin 4)))
    (net (code 4) (name "Net-(C2-Pad1)")
      (node (ref U1) (pin 2))
      (node (ref C2) (pin 1)))
    (net (code 5) (name "Net-(C2-Pad2)")
      (node (ref C2) (pin 2))
      (node (ref U1) (pin 3)))
    (net (code 6) (name "Net-(C1-Pad2)")
      (node (ref U1) (pin 1))
      (node (ref C1) (pin 2)))
    (net (code 7) (name "Net-(J3-Pad2)")
      (node (ref U3) (pin 1))
      (node (ref J3) (pin 2)))
    (net (code 8) (name "Net-(R1-Pad1)")
      (node (ref U2) (pin 8))
      (node (ref R1) (pin 1)))
    (net (code 9) (name Vcc)
      (node (ref U1) (pin 24))
      (node (ref C11) (pin 1))
      (node (ref J12) (pin 3))
      (node (ref C15) (pin 1))
      (node (ref D1) (pin 2))
      (node (ref U1) (pin 23))
      (node (ref U2) (pin 3))
      (node (ref C1) (pin 1)))
    (net (code 10) (name "Net-(J1-Pad2)")
      (node (ref U1) (pin 20))
      (node (ref J1) (pin 2))
      (node (ref U1) (pin 19)))
    (net (code 11) (name "Net-(J1-Pad1)")
      (node (ref U1) (pin 21))
      (node (ref U1) (pin 22))
      (node (ref J1) (pin 1)))
    (net (code 12) (name SDA)
      (node (ref U2) (pin 1))
      (node (ref J0) (pin 3))
      (node (ref U3) (pin 9))
      (node (ref U1) (pin 11)))
    (net (code 13) (name SCL)
      (node (ref U3) (pin 10))
      (node (ref J0) (pin 5))
      (node (ref U1) (pin 10))
      (node (ref R0) (pin 2)))
    (net (code 14) (name "Net-(J0-Pad17)")
      (node (ref J0) (pin 17)))
    (net (code 15) (name "Net-(J0-Pad1)")
      (node (ref J0) (pin 1)))
    (net (code 16) (name "Net-(J2-Pad2)")
      (node (ref U2) (pin 16))
      (node (ref J2) (pin 2)))
    (net (code 17) (name "Net-(J3-Pad1)")
      (node (ref U3) (pin 3))
      (node (ref J3) (pin 1)))
    (net (code 18) (name "Net-(J2-Pad4)")
      (node (ref J2) (pin 4))
      (node (ref U2) (pin 13)))
    (net (code 19) (name "Net-(J2-Pad3)")
      (node (ref U2) (pin 15))
      (node (ref J2) (pin 3)))
    (net (code 20) (name "Net-(J2-Pad1)")
      (node (ref J2) (pin 1))
      (node (ref U2) (pin 18)))
    (net (code 21) (name "Net-(J1-Pad3)")
      (node (ref J1) (pin 3))
      (node (ref U1) (pin 17))
      (node (ref U1) (pin 18)))
    (net (code 22) (name Vdd)
      (node (ref J5) (pin 3))
      (node (ref C8) (pin 1))
      (node (ref J0) (pin 4))
      (node (ref J0) (pin 2))
      (node (ref U3) (pin 4)))
    (net (code 23) (name PGnd1)
      (node (ref U1) (pin 16))
      (node (ref R2) (pin 2))
      (node (ref U2) (pin 14))
      (node (ref R3) (pin 1))
      (node (ref C11) (pin 2))
      (node (ref U1) (pin 5))
      (node (ref U1) (pin 15))
      (node (ref C3) (pin 2))
      (node (ref C12) (pin 2))
      (node (ref J5) (pin 2))
      (node (ref C15) (pin 2))
      (node (ref U1) (pin 8))
      (node (ref C14) (pin 1))
      (node (ref C13) (pin 1))
      (node (ref C10) (pin 1))
      (node (ref C10) (pin 2))
      (node (ref C8) (pin 2))
      (node (ref J0) (pin 6))
      (node (ref R1) (pin 2))
      (node (ref J0) (pin 14))
      (node (ref J0) (pin 30))
      (node (ref J0) (pin 20))
      (node (ref J0) (pin 9))
      (node (ref C3) (pin 1))
      (node (ref U3) (pin 5))
      (node (ref U2) (pin 7))
      (node (ref U2) (pin 5))
      (node (ref U2) (pin 4))
      (node (ref C6) (pin 1))
      (node (ref J12) (pin 2))
      (node (ref J12) (pin 1))
      (node (ref J5) (pin 1))
      (node (ref C5) (pin 2))
      (node (ref C4) (pin 2))
      (node (ref J0) (pin 39))
      (node (ref J0) (pin 25))
      (node (ref J0) (pin 34))
      (node (ref U2) (pin 17))
      (node (ref J1) (pin 4)))
    (net (code 24) (name "Net-(C6-Pad2)")
      (node (ref U1) (pin 9))
      (node (ref C6) (pin 2)))
    (net (code 25) (name PWM1)
      (node (ref U5) (pin 1))
      (node (ref J0) (pin 33)))
    (net (code 26) (name PWM0)
      (node (ref J0) (pin 12))
      (node (ref U4) (pin 1)))
    (net (code 27) (name "Net-(R0-Pad1)")
      (node (ref R0) (pin 1))
      (node (ref U2) (pin 2)))
    (net (code 29) (name "Net-(J0-Pad8)")
      (node (ref J0) (pin 8)))
    (net (code 30) (name GPIO1)
      (node (ref J0) (pin 31))
      (node (ref U5) (pin 2)))
    (net (code 31) (name "Net-(J0-Pad15)")
      (node (ref J0) (pin 15)))
    (net (code 32) (name "Net-(J0-Pad32)")
      (node (ref J0) (pin 32)))
    (net (code 33) (name "Net-(J0-Pad36)")
      (node (ref J0) (pin 36)))
    (net (code 34) (name GPIO0)
      (node (ref U4) (pin 2))
      (node (ref J0) (pin 11)))
    (net (code 35) (name "Net-(C12-Pad1)")
      (node (ref U2) (pin 19))
      (node (ref D1) (pin 1))
      (node (ref C12) (pin 1))
      (node (ref C13) (pin 2))
      (node (ref C14) (pin 2))
      (node (ref U2) (pin 12))
      (node (ref C9) (pin 1)))
    (net (code 36) (name "Net-(C9-Pad2)")
      (node (ref C9) (pin 2))
      (node (ref U2) (pin 11)))
    (net (code 37) (name "Net-(C7-Pad2)")
      (node (ref U2) (pin 10))
      (node (ref C7) (pin 2)))
    (net (code 38) (name "Net-(C7-Pad1)")
      (node (ref U2) (pin 9))
      (node (ref C7) (pin 1)))
    (net (code 39) (name "Net-(J0-Pad10)")
      (node (ref J0) (pin 10)))
    (net (code 40) (name "Net-(R2-Pad1)")
      (node (ref R2) (pin 1))
      (node (ref U3) (pin 2)))
    (net (code 41) (name "Net-(R3-Pad2)")
      (node (ref R3) (pin 2))
      (node (ref U2) (pin 20)))
    (net (code 42) (name "Net-(J0-Pad26)")
      (node (ref J0) (pin 26)))
    (net (code 43) (name "Net-(J0-Pad16)")
      (node (ref J0) (pin 16)))
    (net (code 44) (name "Net-(J0-Pad35)")
      (node (ref J0) (pin 35)))
    (net (code 45) (name "Net-(J0-Pad24)")
      (node (ref J0) (pin 24)))
    (net (code 46) (name "Net-(J0-Pad23)")
      (node (ref J0) (pin 23)))
    (net (code 47) (name "Net-(J0-Pad13)")
      (node (ref J0) (pin 13)))
    (net (code 48) (name "Net-(J0-Pad22)")
      (node (ref J0) (pin 22)))
    (net (code 49) (name "Net-(J0-Pad21)")
      (node (ref J0) (pin 21)))
    (net (code 50) (name "Net-(J0-Pad40)")
      (node (ref J0) (pin 40)))
    (net (code 51) (name "Net-(J0-Pad7)")
      (node (ref J0) (pin 7)))
    (net (code 52) (name "Net-(U2-Pad6)")
      (node (ref U2) (pin 6)))
    (net (code 53) (name "Net-(U3-Pad8)")
      (node (ref U3) (pin 8)))
    (net (code 54) (name "Net-(U3-Pad7)")
      (node (ref U3) (pin 7)))
    (net (code 55) (name "Net-(U3-Pad6)")
      (node (ref U3) (pin 6)))
    (net (code 56) (name "Net-(J0-Pad29)")
      (node (ref J0) (pin 29)))
    (net (code 57) (name "Net-(J0-Pad19)")
      (node (ref J0) (pin 19)))
    (net (code 58) (name "Net-(J0-Pad38)")
      (node (ref J0) (pin 38)))
    (net (code 59) (name "Net-(J0-Pad28)")
      (node (ref J0) (pin 28)))
    (net (code 60) (name "Net-(J0-Pad18)")
      (node (ref J0) (pin 18)))
    (net (code 61) (name "Net-(J0-Pad37)")
      (node (ref J0) (pin 37)))
    (net (code 62) (name "Net-(J0-Pad27)")
      (node (ref J0) (pin 27)))
    (net (code 64) (name "Net-(U1-Pad12)")
      (node (ref U1) (pin 12)))
    (net (code 65) (name "Net-(U1-Pad14)")
      (node (ref U1) (pin 14)))
    (net (code 66) (name "Net-(U1-Pad13)")
      (node (ref U1) (pin 13)))))